<svg width="398" height="43" viewBox="0 0 398 43" fill="none" xmlns="http://www.w3.org/2000/svg">
<path d="M3.11917 18.9597C81.7537 16.0879 260.543 12.1982 346.626 19.6133" stroke="#012343" stroke-width="5" stroke-linecap="round" stroke-linejoin="round"/>
<path d="M20.7886 25.8514C106.826 22.6313 302.493 17.9504 396.86 24.9867" stroke="#012343" stroke-width="3"/>
</svg>
