<svg width="25" height="24" viewBox="0 0 25 24" fill="none" xmlns="http://www.w3.org/2000/svg">
<circle cx="12.5" cy="12" r="11.5" stroke="#0A43FF"/>
<path fill-rule="evenodd" clip-rule="evenodd" d="M8.96195 7.19995C8.19914 7.19995 7.7002 7.68329 7.7002 8.31889C7.7002 8.94065 8.1847 9.43866 8.93236 9.43866H8.94725C9.72484 9.43866 10.2084 8.94074 10.2084 8.31889C10.1938 7.68329 9.72484 7.19995 8.96195 7.19995ZM18.0999 13.0857V16.7999H15.8709V13.3345C15.8709 12.4639 15.5484 11.8698 14.7416 11.8698C14.1257 11.8698 13.7591 12.2702 13.5979 12.6575C13.5391 12.7959 13.5239 12.9887 13.5239 13.1825V16.7999H11.2941C11.2941 16.7999 11.3242 10.9305 11.2941 10.3224H13.5237V11.2406C13.5216 11.2438 13.5192 11.2472 13.5167 11.2505C13.514 11.2543 13.5113 11.258 13.5091 11.2615H13.5237V11.2406C13.82 10.7999 14.349 10.1703 15.5331 10.1703C17.0001 10.1702 18.0999 11.0961 18.0999 13.0857ZM10.0614 16.7999H7.83242V10.3224H10.0614V16.7999Z" fill="#0A43FF"/>
</svg>
