<svg width="30" height="22" viewBox="0 0 30 22" fill="none" xmlns="http://www.w3.org/2000/svg">
<path d="M0 3.98664V19.25C0 20.4926 1.00736 21.5 2.25 21.5H27.75C28.9926 21.5 30 20.4926 30 19.25V3.9865L15.7557 12.2957C15.2886 12.5681 14.7111 12.5681 14.2441 12.2957L0 3.98664Z" fill="#EF4135"/>
<path d="M29.165 1.0005C28.7784 0.687499 28.2861 0.5 27.75 0.5H2.25C1.71384 0.5 1.22149 0.687533 0.834946 1.00058L14.9999 9.26346L29.165 1.0005Z" fill="#EF4135"/>
</svg>
