<svg width="396" height="77" viewBox="0 0 396 77" fill="none" xmlns="http://www.w3.org/2000/svg">
<path d="M273.781 69.2264C196.064 66.1642 199.606 75.1216 57.2494 56.2488C34.4086 53.2208 2.01034 47.741 2.06164 31.9615C2.1633 0.692767 130.857 2.23271 145.755 2.28117C219.153 2.51993 300.779 3.33085 370.156 21.7624C408.592 31.9735 394.539 42.2114 370.068 48.9383C296.122 69.2649 212.495 71.1645 134.775 74.9107" stroke="black" stroke-width="4" stroke-linecap="round" stroke-linejoin="round"/>
</svg>
