<svg width="21" height="21" viewBox="0 0 21 21" fill="none" xmlns="http://www.w3.org/2000/svg">
<rect x="0.5" y="0.5" width="20" height="20" rx="10" fill="#C7D3E9"/>
<path d="M10.5 13.5L9.79289 14.2071L10.5 14.9142L11.2071 14.2071L10.5 13.5ZM5.79289 10.2071L9.79289 14.2071L11.2071 12.7929L7.20711 8.79289L5.79289 10.2071ZM11.2071 14.2071L15.2071 10.2071L13.7929 8.79289L9.79289 12.7929L11.2071 14.2071Z" fill="#F8FAFC"/>
</svg>
