<svg width="12" height="8" viewBox="0 0 12 8" fill="none" xmlns="http://www.w3.org/2000/svg">
<path fill-rule="evenodd" clip-rule="evenodd" d="M6.00025 7.50001C5.74425 7.50001 5.48825 7.40201 5.29325 7.20701L0.29325 2.20701C-0.09775 1.81601 -0.09775 1.18401 0.29325 0.793006C0.68425 0.402006 1.31625 0.402006 1.70725 0.793006L6.00025 5.08601L10.2933 0.793006C10.6842 0.402006 11.3162 0.402006 11.7072 0.793006C12.0982 1.18401 12.0982 1.81601 11.7072 2.20701L6.70725 7.20701C6.51225 7.40201 6.25625 7.50001 6.00025 7.50001Z" fill="#5C5F62"/>
</svg>
