<svg width="25" height="24" viewBox="0 0 25 24" fill="none" xmlns="http://www.w3.org/2000/svg">
<path fill-rule="evenodd" clip-rule="evenodd" d="M17.704 10.7962L19.5 9.00019C20.0452 8.45494 20.3178 8.18231 20.4636 7.88822C20.7409 7.32866 20.7409 6.67171 20.4636 6.11215C20.3178 5.81806 20.0452 5.54544 19.5 5.00019C18.9547 4.45494 18.6821 4.18231 18.388 4.03658C17.8284 3.75929 17.1715 3.75929 16.6119 4.03658C16.3178 4.18231 16.0452 4.45493 15.5 5.00018L15.5 5.00019L13.6813 6.81884C14.6452 8.46944 16.0313 9.845 17.704 10.7962ZM12.2268 8.2733L6.16766 14.3325C5.83532 14.6648 5.66915 14.831 5.54673 15.0291C5.4243 15.2272 5.34999 15.4501 5.20136 15.896L3.81619 20.0515C3.67821 20.4655 3.60922 20.6724 3.71847 20.7817C3.82772 20.8909 4.0347 20.8219 4.44865 20.684L8.60415 19.2988C9.05003 19.1502 9.27297 19.0758 9.47106 18.9534C9.66915 18.831 9.83532 18.6648 10.1677 18.3325L16.2457 12.2544C14.6241 11.2388 13.2524 9.87646 12.2268 8.2733Z" fill="#CCD2E3"/>
</svg>
