<svg width="25" height="24" viewBox="0 0 25 24" fill="none" xmlns="http://www.w3.org/2000/svg">
<circle cx="12.5" cy="12" r="11.5" stroke="#0A43FF"/>
<path d="M13.8258 10.3319V9.29792C13.8258 9.1427 13.833 9.02247 13.8475 8.93754C13.862 8.85249 13.8949 8.76883 13.946 8.68625C13.9971 8.60372 14.0798 8.54674 14.1939 8.51517C14.3082 8.48354 14.4601 8.46778 14.6498 8.46778H15.6851V6.3999H14.03C13.0723 6.3999 12.3844 6.62681 11.9663 7.08063C11.5483 7.53456 11.3393 8.20318 11.3393 9.08674V10.3319H10.0996V12.3999H11.3392V18.3999H13.8258V12.3999H15.4808L15.6996 10.3319H13.8258Z" fill="#0A43FF"/>
</svg>
