<svg width="13" height="14" viewBox="0 0 13 14" fill="none" xmlns="http://www.w3.org/2000/svg">
<path d="M12 1.75781H13V0.757812H12V1.75781ZM1.29289 11.0507C0.902369 11.4412 0.902369 12.0744 1.29289 12.4649C1.68342 12.8554 2.31658 12.8554 2.70711 12.4649L1.29289 11.0507ZM13 13.7578V1.75781H11V13.7578H13ZM12 0.757812H0V2.75781H12V0.757812ZM11.2929 1.05071L1.29289 11.0507L2.70711 12.4649L12.7071 2.46492L11.2929 1.05071Z" fill="#EF4135"/>
</svg>
