<svg width="25" height="24" viewBox="0 0 25 24" fill="none" xmlns="http://www.w3.org/2000/svg">
<circle cx="12.2056" cy="12" r="11.5" stroke="#F1ECE9"/>
<path fill-rule="evenodd" clip-rule="evenodd" d="M8.66752 7.19995C7.90471 7.19995 7.40576 7.68329 7.40576 8.31889C7.40576 8.94065 7.89027 9.43866 8.63792 9.43866H8.65282C9.43041 9.43866 9.91399 8.94074 9.91399 8.31889C9.89934 7.68329 9.43041 7.19995 8.66752 7.19995ZM17.8055 13.0857V16.7999H15.5764V13.3345C15.5764 12.4639 15.254 11.8698 14.4472 11.8698C13.8312 11.8698 13.4647 12.2702 13.3035 12.6575C13.2446 12.7959 13.2295 12.9887 13.2295 13.1825V16.7999H10.9997C10.9997 16.7999 11.0297 10.9305 10.9997 10.3224H13.2293V11.2406C13.2272 11.2438 13.2247 11.2472 13.2223 11.2505C13.2196 11.2543 13.2169 11.258 13.2146 11.2615H13.2293V11.2406C13.5255 10.7999 14.0545 10.1703 15.2387 10.1703C16.7057 10.1702 17.8055 11.0961 17.8055 13.0857ZM9.76695 16.7999H7.53799V10.3224H9.76695V16.7999Z" fill="#F9F4F1"/>
</svg>
