<svg width="238" height="81" viewBox="0 0 238 81" fill="none" xmlns="http://www.w3.org/2000/svg">
<path d="M114.327 0.577812C106.333 1.04775 98.3777 1.7481 90.5189 2.63677C82.8417 3.50534 75.2321 4.55858 67.7508 5.79285C60.2659 7.02712 52.9021 8.51557 45.8338 10.2783C38.9969 11.9788 32.3951 13.9957 26.5055 16.4679C23.6354 17.6729 20.9505 18.9932 18.3226 20.3335C15.6413 21.7012 13.3303 23.25 10.9268 24.744C10.5457 24.9853 10.154 25.223 9.75878 25.4608C9.27451 25.7533 8.95759 26.0587 8.95759 26.4518C8.95759 26.8249 9.24602 27.1832 9.75878 27.4466C10.5564 27.858 11.7635 27.9567 12.757 27.7446C10.8627 28.9917 9.12852 30.3009 7.57242 31.6687C5.64957 33.3601 4.09348 35.1667 2.86498 37.0172C0.397316 40.72 -0.375398 44.6861 0.16229 48.581C0.432915 50.5723 1.11659 52.5489 2.14924 54.4726C3.14628 56.3267 4.58487 58.1278 6.2834 59.8394C7.98548 61.5509 10.1398 63.1289 12.4971 64.6137C14.8045 66.0747 17.4573 67.3803 20.274 68.5725C26.0995 71.0374 32.6586 72.9592 39.5417 74.53C46.5708 76.1354 53.9347 77.3477 61.4089 78.2693C69.0719 79.2165 76.8559 79.8547 84.6862 80.3027C88.6174 80.5276 92.5664 80.6995 96.5154 80.8183C98.4133 80.875 100.311 80.9171 102.213 80.9518C103.37 80.9738 104.538 81.0049 105.695 80.9994C111.329 80.961 116.958 80.939 122.591 80.8933C123.425 80.886 124.265 80.8348 125.095 80.8056C126.932 80.7416 128.77 80.6775 130.607 80.6135C133.281 80.5203 135.955 80.427 138.622 80.332C140.535 80.2643 142.443 80.129 144.348 80.0138C146.488 79.8821 148.628 79.7358 150.761 79.5749C154.671 79.2769 158.556 78.9075 162.412 78.4796C170.004 77.6385 177.468 76.4883 184.682 75.0163C191.925 73.5389 198.861 71.7249 205.356 69.5069C208.518 68.4317 211.563 67.256 214.394 65.9595C217.136 64.707 219.646 63.3246 221.914 61.8416C226.803 58.6435 230.571 55.0595 233.277 51.2433C236.001 47.4107 237.447 43.3312 237.895 39.2608C238.34 35.2398 237.379 31.1403 234.758 27.335C232.137 23.5243 227.953 20.0226 222.844 16.9598C217.923 14.0104 211.965 11.5619 205.559 9.51762C202.401 8.50643 199.103 7.62141 195.731 6.81868C192.117 5.95926 188.417 5.18759 184.668 4.49822C177.315 3.15058 169.702 2.13939 162.028 1.40065C154.13 0.638149 146.093 0.166406 138.067 0.0365789C136.518 0.0109791 134.973 0 133.424 0C127.053 0 120.669 0.206616 114.327 0.577812ZM131.387 4.01184C138.259 3.97344 145.11 4.19834 151.929 4.65182C164.31 5.53501 176.57 7.1222 188.125 9.58709C195.037 11.1103 201.649 12.9608 207.657 15.2977C211.851 17 215.654 18.9365 218.969 21.0924C221.936 23.1147 224.474 25.3053 226.458 27.6239C228.089 29.6847 229.239 31.8296 229.883 34.0294C230.603 37.0775 230.439 40.1532 229.688 43.194C228.78 46.4434 227.149 49.6287 224.717 52.6696C222.509 55.2991 219.735 57.7987 216.37 60.0862C213.215 62.1397 209.594 63.9756 205.588 65.592C198.929 68.1977 191.615 70.3097 183.931 72.0084C171.368 74.7092 158.061 76.3347 144.601 77.2801C144.833 77.2618 145.068 77.2472 145.299 77.2307C142.903 77.3971 140.499 77.5745 138.092 77.6695C136.689 77.7262 135.289 77.7848 133.886 77.8415C130.408 77.9804 126.929 78.1194 123.45 78.2602C121.648 78.3334 119.832 78.3242 118.03 78.3425C114.394 78.3809 110.762 78.4193 107.134 78.4576C103.755 78.4924 100.368 78.4175 96.9925 78.3315C91.0673 78.1816 85.1598 77.9 79.2809 77.5032C66.8927 76.6328 54.5863 75.159 43.0207 72.6831C36.6183 71.2733 30.4723 69.5563 24.9209 67.3876C21.2959 65.9266 17.995 64.29 15.1392 62.4267C12.636 60.7244 10.5493 58.9013 8.88639 56.9484C7.10597 54.7396 5.88457 52.4374 5.21869 50.0712C4.60623 47.5405 4.57775 44.9769 5.19378 42.4462C5.84185 40.166 7.04542 37.9406 8.75463 35.8104C10.7451 33.457 13.3232 31.2627 16.3463 29.2203C20.1636 26.717 24.5826 24.4825 29.4645 22.5241C32.9755 21.1545 36.6753 19.9312 40.5067 18.8067C42.483 18.227 44.5056 17.6876 46.5388 17.1628C47.4041 16.9397 48.2658 16.7184 49.1489 16.5155C52.286 15.7932 55.4195 15.0782 58.5531 14.3541C61.2878 13.833 64.0262 13.3118 66.7609 12.7907C67.5407 12.6426 68.317 12.4707 69.1075 12.3464C70.4535 12.1379 71.7924 11.9276 73.1384 11.7192C75.5063 11.3498 77.8601 10.9421 80.2601 10.6294C83.2441 10.2399 86.2245 9.85224 89.212 9.46276C89.764 9.38962 90.3337 9.34572 90.8963 9.28355C92.221 9.14458 93.5456 9.0056 94.8631 8.86481C95.9278 8.75144 96.9925 8.6399 98.0572 8.52653C99.8412 8.33819 101.65 8.21203 103.455 8.08769C103.338 8.09684 103.231 8.10232 103.114 8.11147C105.385 7.96152 107.664 7.84632 109.95 7.78415C112.411 7.7165 114.861 7.72746 117.321 7.775C118.197 7.79329 119.08 7.84264 119.956 7.87556C120.986 7.91396 122.011 7.95054 123.037 8.00723C123.329 8.03282 123.624 8.06757 123.923 8.0822C124.258 8.10048 124.578 7.95054 124.664 7.79512C124.76 7.61043 124.589 7.455 124.308 7.34895C124.169 7.29775 123.841 7.27033 123.713 7.25204C123.378 7.21182 123.037 7.19351 122.695 7.16973C122.346 7.14413 121.997 7.1222 121.644 7.10026C120.768 7.0454 119.889 6.99237 119.013 6.93751C116.453 6.77843 113.889 6.6614 111.304 6.63397C105.902 6.57911 100.521 6.86437 95.1978 7.33614C93.3747 7.49705 91.5551 7.6598 89.7319 7.82255C89.0269 7.88289 88.3254 7.94506 87.6346 8.02734C84.5901 8.37477 81.5526 8.724 78.5081 9.07326C77.6001 9.17931 76.7063 9.32744 75.8125 9.45361C73.9609 9.71692 72.1093 9.97658 70.2576 10.2381C69.4671 10.3514 68.6481 10.441 67.8754 10.58C66.5508 10.8177 65.2333 11.0518 63.9087 11.2858C62.1781 11.593 60.4368 11.9002 58.7062 12.2074C57.9193 12.3445 57.1466 12.489 56.381 12.6554C53.3115 13.3228 50.2421 13.9902 47.1762 14.6595C44.9898 15.1331 42.864 15.6872 40.7453 16.2412C37.7862 17.0202 34.8984 17.8723 32.0996 18.7939C39.1999 16.1498 47.0622 14.0396 55.1169 12.2751C63.8303 10.4118 72.8143 8.95076 81.9372 7.72015C91.4233 6.43833 101.048 5.44908 110.766 4.76703C117.61 4.30989 124.493 4.04841 131.387 4.01184ZM110.712 4.76521C110.517 4.77984 110.317 4.79263 110.121 4.8036C110.321 4.79263 110.517 4.77801 110.712 4.76521ZM54.9923 12.2988C54.8392 12.3318 54.6896 12.3647 54.5365 12.3976C54.686 12.3628 54.8392 12.3318 54.9923 12.2988ZM29.2723 22.5972C29.1975 22.6283 29.1227 22.6576 29.0443 22.6868C29.1191 22.6558 29.1939 22.6265 29.2723 22.5972ZM25.1737 67.4827C25.2307 67.5065 25.2841 67.5266 25.3411 67.5486C25.2841 67.5266 25.2271 67.5047 25.1737 67.4827ZM183.713 72.0541C183.589 72.0833 183.461 72.1089 183.332 72.1382C183.461 72.1089 183.589 72.0815 183.713 72.0541Z" fill="#EF4135"/>
</svg>
