<svg width="97" height="84" viewBox="0 0 97 84" fill="none" xmlns="http://www.w3.org/2000/svg">
<path d="M44.0777 26.3183C46.255 24.4367 48.4356 22.5596 50.6162 20.6817C41.3622 22.8047 32.8826 26.9148 25.8877 32.6799C18.1486 39.0589 13.8495 46.4997 9.70285 54.8929C9.29685 55.713 8.0506 55.0914 8.17339 54.3479C9.66805 45.2714 16.5406 36.4448 23.9753 30.2402C31.115 24.2814 39.764 19.9588 49.2358 17.6796C45.6373 17.0193 41.9037 16.9081 38.2778 17.4448C37.3261 17.5861 36.9318 16.3924 37.8911 16.1547C43.9916 14.6475 50.1462 14.7645 56.0627 16.8694C57.0568 17.2232 57.5922 18.2662 56.7289 19.0245C53.238 22.0917 49.7411 25.1526 46.239 28.2106C44.8474 29.4266 42.6762 27.5306 44.0777 26.3183Z" fill="#BB2F25"/>
<path d="M94.9352 36.5911C90.1337 39.0222 85.1172 40.9924 79.8876 42.6021C78.0208 43.1772 77.2436 40.5665 79.1071 39.996C82.5033 38.9567 85.7871 37.7218 89.0018 36.3423C78.8158 34.7379 68.3603 35.3178 58.4609 37.9772C48.2881 40.711 40.4164 45.7644 31.9547 51.1745C31.6117 51.3932 31.1093 50.9508 31.3567 50.6509C37.4901 43.2105 47.9701 38.3195 57.7091 35.4653C66.3914 32.9209 75.5621 32.0489 84.6246 32.8047C81.4711 31.6032 78.2837 30.475 75.0996 29.2269C74.2655 28.8994 74.8988 27.9446 75.6539 28.0348C82.3786 28.8322 89.0243 31.5163 94.9361 34.3313C95.9401 34.8099 95.8983 36.1038 94.9352 36.5911Z" fill="#BB2F25"/>
</svg>
