<svg width="8" height="12" viewBox="0 0 8 12" fill="none" xmlns="http://www.w3.org/2000/svg">
<path fill-rule="evenodd" clip-rule="evenodd" d="M7.20582 5.99999C7.20582 6.25599 7.10782 6.51199 6.91282 6.70699L1.91282 11.707C1.52182 12.098 0.889816 12.098 0.498816 11.707C0.107816 11.316 0.107816 10.684 0.498816 10.293L4.79182 5.99999L0.498816 1.70699C0.107816 1.31599 0.107816 0.683994 0.498816 0.292994C0.889816 -0.0980053 1.52182 -0.0980053 1.91282 0.292994L6.91282 5.29299C7.10782 5.48799 7.20582 5.74399 7.20582 5.99999Z" fill="white"/>
</svg>
