<svg width="55" height="56" viewBox="0 0 55 56" fill="none" xmlns="http://www.w3.org/2000/svg">
<path fill-rule="evenodd" clip-rule="evenodd" d="M31.0712 36.8288C31.4369 36.8288 31.8025 36.6888 32.0811 36.4103C32.6396 35.8517 32.6396 34.949 32.0811 34.3904L25.9487 28.258L32.0811 22.1256C32.6396 21.5671 32.6396 20.6643 32.0811 20.1057C31.5226 19.5472 30.6198 19.5472 30.0612 20.1057L22.9189 27.2481C22.3604 27.8066 22.3604 28.7094 22.9189 29.2679L30.0612 36.4103C30.3398 36.6888 30.7055 36.8288 31.0712 36.8288Z" fill="#0A43FF"/>
<rect x="1" y="1.75781" width="53" height="53" rx="26.5" stroke="#0A43FF" stroke-width="2"/>
</svg>
