<svg width="19" height="16" viewBox="0 0 19 16" fill="none" xmlns="http://www.w3.org/2000/svg">
<path d="M1.5 8.0001L0.792893 7.29299L0.0857865 8.0001L0.792893 8.7072L1.5 8.0001ZM17.5 9.0001C18.0523 9.0001 18.5 8.55238 18.5 8.0001C18.5 7.44781 18.0523 7.0001 17.5 7.0001V9.0001ZM7.19289 0.892991L0.792893 7.29299L2.20711 8.7072L8.60711 2.3072L7.19289 0.892991ZM0.792893 8.7072L7.19289 15.1072L8.60711 13.693L2.20711 7.29299L0.792893 8.7072ZM1.5 9.0001H17.5V7.0001H1.5V9.0001Z" fill="#0A43FF"/>
</svg>
