<svg width="343" height="82" viewBox="0 0 343 82" fill="none" xmlns="http://www.w3.org/2000/svg">
<path d="M238.111 13.5925C171.009 13.6634 174.482 4.50225 50.9457 18.4073C31.1247 20.6383 2.95422 25.0332 2.25747 41.4234C0.876779 73.9022 111.827 77.4518 124.665 77.9975C187.913 80.6861 258.277 83.1097 318.916 66.743C352.509 57.6758 340.883 46.4809 320.115 38.5154C257.361 14.4463 185.4 9.12758 118.615 2.12743" stroke="black" stroke-width="4" stroke-linecap="round" stroke-linejoin="round"/>
</svg>
