<svg width="25" height="24" viewBox="0 0 25 24" fill="none" xmlns="http://www.w3.org/2000/svg">
<circle cx="12.2056" cy="12" r="11.5" stroke="#F1ECE9"/>
<path d="M13.5319 10.3319V9.29792C13.5319 9.1427 13.539 9.02247 13.5535 8.93754C13.568 8.85249 13.601 8.76883 13.6521 8.68625C13.7032 8.60372 13.7858 8.54674 13.9 8.51517C14.0143 8.48354 14.1662 8.46778 14.3559 8.46778H15.3912V6.3999H13.736C12.7783 6.3999 12.0905 6.62681 11.6724 7.08063C11.2544 7.53456 11.0454 8.20318 11.0454 9.08674V10.3319H9.80566V12.3999H11.0453V18.3999H13.5318V12.3999H15.1869L15.4057 10.3319H13.5319Z" fill="#F9F4F1"/>
</svg>
