<svg width="25" height="24" viewBox="0 0 25 24" fill="none" xmlns="http://www.w3.org/2000/svg">
<circle cx="12.5" cy="12" r="11.5" stroke="#0A43FF"/>
<path fill-rule="evenodd" clip-rule="evenodd" d="M9.81781 5.6001H15.1814C17.2316 5.6001 18.8996 7.26807 18.8996 9.3183V14.6819C18.8996 16.7321 17.2316 18.4001 15.1814 18.4001H9.81781C7.76758 18.4001 6.09961 16.7321 6.09961 14.6819V9.3183C6.09961 7.26807 7.76758 5.6001 9.81781 5.6001ZM15.1813 17.4001C16.6801 17.4001 17.8995 16.1807 17.8995 14.6819V9.31829C17.8995 7.81947 16.6801 6.60009 15.1813 6.60009H9.81771C8.31889 6.60009 7.09951 7.81947 7.09951 9.31829V14.6819C7.09951 16.1807 8.31889 17.4001 9.81771 17.4001H15.1813Z" fill="#0A43FF"/>
<path fill-rule="evenodd" clip-rule="evenodd" d="M9.0498 12C9.0498 10.0977 10.5975 8.55005 12.4998 8.55005C14.4022 8.55005 15.9498 10.0977 15.9498 12C15.9498 13.9024 14.4022 15.45 12.4998 15.45C10.5975 15.45 9.0498 13.9024 9.0498 12ZM10.05 12.0001C10.05 13.351 11.1491 14.4501 12.5 14.4501C13.8509 14.4501 14.95 13.351 14.95 12.0001C14.95 10.6491 13.8509 9.55006 12.5 9.55006C11.1491 9.55006 10.05 10.6491 10.05 12.0001Z" fill="#0A43FF"/>
<circle cx="16" cy="8.5" r="0.5" fill="#0A43FF"/>
</svg>
