<svg width="283" height="283" viewBox="0 0 283 283" fill="none" xmlns="http://www.w3.org/2000/svg">
<g style="mix-blend-mode:multiply">
<path d="M0 100C0 44.7715 44.7715 0 100 0H283V183C283 238.228 238.228 283 183 283H0V100Z" fill="#0D35B4"/>
</g>
</svg>
