<svg width="276" height="79" viewBox="0 0 276 79" fill="none" xmlns="http://www.w3.org/2000/svg">
<path d="M189.959 8.79197C136.216 11.6528 138.685 2.54321 40.2131 21.2897C24.4135 24.2975 2.00002 29.7703 2 45.8387C1.99996 77.6799 90.9861 76.5381 101.287 76.5381C152.037 76.5381 208.477 75.9827 256.488 57.4437C283.087 47.1731 273.394 36.7013 256.488 29.7703C205.406 8.82676 147.588 6.61536 93.8584 2.54321" stroke="black" stroke-width="4" stroke-linecap="round" stroke-linejoin="round"/>
</svg>
