<svg width="79" height="80" viewBox="0 0 79 80" fill="none" xmlns="http://www.w3.org/2000/svg">
<rect y="0.5" width="79" height="79" rx="39.5" fill="#FFF3F2"/>
<path d="M55.1578 57.5363C50.8523 61.4048 45.2916 63.5353 39.5 63.5353C33.2396 63.5353 27.3539 61.0974 22.927 56.6706C18.5002 52.2438 16.0623 46.358 16.0623 40.0976C16.0623 33.8371 18.5002 27.9515 22.927 23.5246C27.3539 19.0978 33.2396 16.6598 39.5 16.6598C42.5158 16.6598 45.4532 17.2254 48.2305 18.3412C48.6056 18.4917 49.0322 18.31 49.1831 17.9346C49.3338 17.5594 49.1518 17.1329 48.7765 16.9821C45.8246 15.7965 42.7036 15.1953 39.5 15.1953C32.8484 15.1953 26.5949 17.7856 21.8914 22.489C17.1879 27.1924 14.5977 33.446 14.5977 40.0976C14.5977 46.7492 17.1879 53.0027 21.8914 57.7061C26.5949 62.4095 32.8484 64.9998 39.5 64.9998C45.6536 64.9998 51.562 62.7361 56.1368 58.6256C56.4376 58.3553 56.4624 57.8923 56.192 57.5915C55.9217 57.2908 55.4587 57.2659 55.1578 57.5363Z" fill="#002290"/>
<path d="M62.479 30.487C62.3229 30.1139 61.8937 29.9382 61.5208 30.0944C61.1477 30.2506 60.9719 30.6796 61.1281 31.0526C62.329 33.9208 62.9379 36.9639 62.9379 40.0976C62.9379 45.6846 60.9383 51.096 57.3077 55.3351C57.0446 55.6422 57.0804 56.1046 57.3875 56.3676C57.5255 56.4859 57.6948 56.5438 57.8635 56.5438C58.07 56.5438 58.2752 56.4569 58.42 56.2878C62.2779 51.7836 64.4025 46.0338 64.4025 40.0977C64.4024 36.7687 63.7552 33.5352 62.479 30.487Z" fill="#002290"/>
<path d="M23.3985 31.069C23.0384 30.8852 22.5973 31.0279 22.4132 31.3881C21.0278 34.1013 20.3252 37.0315 20.3252 40.0976C20.3252 50.6706 28.927 59.2723 39.5 59.2723C50.073 59.2723 58.6748 50.6705 58.6748 40.0976C58.6748 38.3031 58.4266 36.5255 57.9369 34.8141C57.8256 34.4253 57.4201 34.2007 57.0315 34.3115C56.6427 34.4228 56.4177 34.8282 56.5289 35.217C56.981 36.7973 57.2103 38.4394 57.2103 40.0976C57.2103 49.8631 49.2656 57.8077 39.5001 57.8077C29.7347 57.8077 21.7898 49.863 21.7898 40.0975C21.7898 37.2652 22.4384 34.559 23.7176 32.0541C23.9015 31.6939 23.7586 31.2529 23.3985 31.069Z" fill="#002290"/>
<path d="M45.0737 22.4985C45.1803 22.1083 44.9502 21.7056 44.5601 21.5992C42.9158 21.1504 41.2134 20.9229 39.5 20.9229C36.4238 20.9229 33.4853 21.6295 30.7661 23.0231C28.1729 24.3522 25.878 26.2917 24.1296 28.632C23.8876 28.956 23.9539 29.4149 24.2779 29.6569C24.4095 29.7552 24.5632 29.8026 24.7156 29.8026C24.9387 29.8026 25.159 29.701 25.3028 29.5085C26.9185 27.3462 29.0386 25.5542 31.4341 24.3265C33.9447 23.0398 36.6584 22.3874 39.5 22.3874C41.0831 22.3874 42.6558 22.5976 44.1745 23.0121C44.5644 23.1186 44.9672 22.8886 45.0737 22.4985Z" fill="#002290"/>
<path d="M41.0679 28.0018C41.0954 27.5982 40.7904 27.249 40.3869 27.2215C40.0852 27.2011 39.7868 27.1907 39.4999 27.1907C32.383 27.1907 26.593 32.9807 26.593 40.0976C26.593 47.2145 32.3831 53.0045 39.4999 53.0045C46.6168 53.0045 52.4068 47.2145 52.4068 40.0976C52.4068 39.7573 52.3929 39.4092 52.3654 39.0629C52.3334 38.6598 51.9824 38.3586 51.5776 38.3907C51.1744 38.4228 50.8735 38.7754 50.9054 39.1786C50.9298 39.4866 50.9422 39.7958 50.9422 40.0976C50.9422 46.4069 45.8092 51.5399 39.4999 51.5399C33.1906 51.5399 28.0576 46.4069 28.0576 40.0976C28.0576 33.7883 33.1906 28.6553 39.4999 28.6553C39.7539 28.6553 40.0188 28.6645 40.2877 28.6828C40.6894 28.7095 41.0406 28.4053 41.0679 28.0018Z" fill="#002290"/>
<path d="M39.495 35.0504C39.5083 35.0509 39.5215 35.0513 39.5348 35.0514C39.9363 35.0509 40.2706 34.7287 40.2734 34.3242C40.2763 33.9198 39.9519 33.5896 39.5474 33.5867C39.5316 33.5862 39.5159 33.5857 39.5 33.5857C35.9095 33.5857 32.9883 36.5069 32.9883 40.0975C32.9883 43.6881 35.9095 46.6093 39.5 46.6093C43.0623 46.6093 45.9829 43.7111 46.0106 40.1488C46.0137 39.7443 45.6884 39.4139 45.2841 39.4108H45.2782C44.8764 39.4108 44.5491 39.735 44.546 40.1374C44.5246 42.8985 42.261 45.1447 39.5 45.1447C36.717 45.1447 34.4529 42.8805 34.4529 40.0975C34.4529 37.3145 36.717 35.0503 39.495 35.0504Z" fill="#002290"/>
<path d="M42.5972 28.8556L43.9424 32.9233L40.3619 36.6307C39.5238 37.4984 39.0593 38.6877 39.0874 39.8936C39.0967 40.2906 39.4207 40.6079 39.8178 40.6088H39.8278C41.0304 40.6088 42.2057 40.1197 43.0532 39.2662L43.9682 38.3447C44.2531 38.0577 44.2515 37.594 43.9645 37.3091C43.6776 37.0243 43.2138 37.0256 42.9289 37.3128L42.0139 38.2343C41.6352 38.6158 41.1598 38.8899 40.6462 39.0323C40.7778 38.5159 41.0418 38.0349 41.4153 37.6483L58.2498 20.2172C58.3026 20.1626 58.3636 20.1505 58.4056 20.1499C58.4449 20.1489 58.5089 20.1597 58.5633 20.2129L59.0859 20.7246C59.1403 20.7778 59.1521 20.8389 59.1524 20.8809C59.1527 20.9229 59.1418 20.9843 59.0883 21.0381L45.1676 35.0582C44.8827 35.3452 44.8844 35.8089 45.1713 36.0938C45.4582 36.3786 45.9219 36.3771 46.2069 36.0901L46.6848 35.6087C46.6848 35.6087 51.1061 36.9421 51.2704 36.9421C51.6882 36.9421 52.0992 36.7859 52.413 36.4946L63.8465 25.8733C64.2679 25.4818 64.4578 24.9102 64.3543 24.3444C64.2509 23.7786 63.8712 23.3111 63.3386 23.094L60.3049 21.8572C60.5091 21.5707 60.6194 21.2295 60.6169 20.8706C60.6137 20.4183 60.4339 19.9949 60.1106 19.6784L59.588 19.1667C59.2705 18.8557 58.8528 18.6854 58.4093 18.6854C58.4014 18.6854 58.3934 18.6854 58.3854 18.6855C58.0266 18.6904 57.6877 18.8079 57.4056 19.018L56.1054 16.0109C55.8771 15.483 55.4018 15.1131 54.834 15.0216C54.2662 14.9302 53.6986 15.132 53.3161 15.5615L42.9369 27.215C42.54 27.6604 42.4099 28.2891 42.5972 28.8556ZM57.7821 29.5078L54.1948 28.0452L56.4714 25.7524L60.1919 27.2693L57.7821 29.5078ZM54.1774 32.8563L50.798 31.4662L53.0769 29.1711L56.5989 30.607L54.1774 32.8563ZM51.4162 35.4215C51.3613 35.4727 51.2824 35.4907 51.2104 35.4686L47.8504 34.435L49.6816 32.5906L52.9959 33.954L51.4162 35.4215ZM62.9137 24.6077C62.9214 24.6503 62.9234 24.7318 62.8497 24.8004L61.3751 26.1701L57.5893 24.6267L59.2113 22.9929L62.7857 24.4502C62.8789 24.4882 62.9058 24.5652 62.9137 24.6077ZM48.7354 22.9065L50.2448 26.3976L47.9979 28.7242L46.5373 25.3746L48.7354 22.9065ZM51.997 19.2444L53.5915 22.9323L51.347 25.2564L49.8095 21.7005L51.997 19.2444ZM54.4097 16.5355C54.4768 16.4603 54.5585 16.4605 54.601 16.4676C54.6437 16.4744 54.7212 16.4998 54.7612 16.5922L56.2931 20.1351L54.6938 21.7911L53.0713 18.0383L54.4097 16.5355ZM44.0305 28.189L45.4645 26.579L46.897 29.8641L45.0916 31.7335L43.9877 28.3957C43.9642 28.3244 43.9806 28.2452 44.0305 28.189Z" fill="#0A43FF"/>
</svg>
