<svg width="30" height="30" viewBox="0 0 30 30" fill="none" xmlns="http://www.w3.org/2000/svg">
<path d="M11.8132 10.4639L11.0122 6.4589C10.8022 5.4074 9.87822 4.6499 8.80572 4.6499H3.95622C2.66622 4.6499 1.59222 5.7404 1.65072 7.0289C2.34222 22.2704 9.89922 28.0664 23.2732 28.6484C24.5617 28.7039 25.6492 27.6344 25.6492 26.3459V21.4934C25.6492 20.4209 24.8917 19.4969 23.8402 19.2869L19.8352 18.4859C18.8407 18.2864 17.8357 18.7784 17.3812 19.6859L16.6492 21.1484C13.6492 21.1484 9.14922 16.6484 9.14922 13.6484L10.6117 12.9164C11.5207 12.4634 12.0127 11.4584 11.8132 10.4639Z" fill="#FF564A"/>
</svg>
