<svg width="52" height="53" viewBox="0 0 52 53" fill="none" xmlns="http://www.w3.org/2000/svg">
<path d="M33.7111 25.8634L21.0789 19.5473C20.8129 19.4143 20.5 19.6077 20.5 19.905V33.6106C20.5 33.908 20.8129 34.1013 21.0789 33.9684L33.7111 27.6522C34.4482 27.2837 34.4482 26.2319 33.7111 25.8634Z" fill="#0A43FF"/>
<rect x="1" y="1.75781" width="50" height="50" rx="25" stroke="#0A43FF" stroke-width="2"/>
</svg>
