<svg width="18" height="18" viewBox="0 0 18 18" fill="none" xmlns="http://www.w3.org/2000/svg">
<path d="M9 4.5L9 13.5" stroke="#EF4135" stroke-width="2" stroke-linecap="round"/>
<path d="M13.5 9L4.5 9" stroke="#EF4135" stroke-width="2" stroke-linecap="round"/>
</svg>
