<svg width="365" height="21" viewBox="0 0 365 21" fill="none" xmlns="http://www.w3.org/2000/svg">
<path d="M11.3683 8.61207C8.45977 8.34105 5.52455 8.10467 2.66939 7.76438C2.4456 8.64619 2.26014 9.57684 2.07472 10.5075C7.76845 10.6179 13.6943 10.1316 19.4599 9.85312C25.3823 9.56841 31.2013 9.22064 37.1888 8.95014C48.8384 8.33808 60.4998 7.8095 72.1994 7.32976C95.4419 6.37648 118.746 5.639 142.1 5.03385C165.455 4.42869 188.752 4.0944 212.099 3.89241C235.42 3.72506 258.803 3.77349 282.182 4.02351C305.496 4.25932 328.806 4.69673 352.152 5.38455C355.064 5.45399 358.041 5.53762 361.018 5.62127C362.885 5.6649 364.751 5.0203 364.978 3.93691C365.19 2.97162 363.837 1.86682 361.84 1.79477C338.429 1.09273 315.015 0.592306 291.571 0.328069C267.997 0.0354073 244.522 0.00738868 220.968 0.0832632C197.517 0.222194 174.128 0.57688 150.697 1.08435C127.266 1.59182 103.843 2.38439 80.4822 3.39272C57.2398 4.34599 33.9171 5.40312 10.8597 7.00379C7.891 7.20519 4.949 7.37198 2.13375 7.76877C-1.02194 8.2126 -0.591942 10.613 2.85905 10.4765C5.7093 10.3301 8.64795 10.3649 11.5482 10.3509C13.4039 10.311 13.0905 8.74538 11.3683 8.61207Z" fill="black"/>
<path d="M42.2651 15.4875C40.15 15.3516 38.227 15.4779 36.2048 15.8985C35.3104 16.0818 34.397 16.2105 33.4635 16.4265C32.1414 16.6851 31.5362 17.12 30.5805 17.7068C28.8835 18.7717 31.2414 20.1844 33.3587 20.0367C71.7428 17.1498 110.127 14.2629 148.755 12.5109C187.228 10.7477 225.79 9.96639 264.443 10.0252C286.303 10.0879 308.142 10.3795 330.056 11.0313C334.947 11.1738 335.504 6.83387 330.515 6.70207C291.656 5.61747 252.673 5.48153 213.801 6.24028C174.791 7.04235 135.834 8.71716 97.1026 11.3306C75.4253 12.8063 53.7067 14.5983 32.2554 17.0127C33.1814 17.7893 34.0684 18.5986 35.0335 19.3426C35.834 18.7446 36.5194 17.9608 37.7454 17.5711C39.0685 17.1706 40.5448 17.065 42.0591 17.0686C43.9609 17.1713 44.1278 15.6228 42.2651 15.4875Z" fill="black"/>
</svg>
