<svg width="99" height="88" viewBox="0 0 99 88" fill="none" xmlns="http://www.w3.org/2000/svg">
<path d="M0 43.9387V87.1195H42.8298V43.9387H14.2767C14.2767 28.0657 27.0859 15.1515 42.8298 15.1515V0.757812C19.212 0.757812 0 20.1273 0 43.9387Z" fill="#1540CC" fill-opacity="0.6"/>
<path d="M99 15.1515V0.757812C75.3822 0.757812 56.1702 20.1273 56.1702 43.9387V87.1195H99V43.9387H70.4468C70.4468 28.0657 83.2561 15.1515 99 15.1515Z" fill="#1540CC" fill-opacity="0.6"/>
</svg>
