<svg width="25" height="24" viewBox="0 0 25 24" fill="none" xmlns="http://www.w3.org/2000/svg">
<circle cx="12.2056" cy="12" r="11.5" stroke="#F1ECE9"/>
<path d="M18.6057 7.72504C18.1346 7.94991 17.6291 8.10241 17.0979 8.1705C17.6402 7.82068 18.0554 7.26581 18.2521 6.60668C17.7434 6.93064 17.1819 7.16587 16.5836 7.29339C16.1045 6.74283 15.423 6.3999 14.6672 6.3999C13.217 6.3999 12.0413 7.66646 12.0413 9.22769C12.0413 9.44911 12.0645 9.66537 12.1093 9.87218C9.92727 9.75412 7.99244 8.62801 6.69748 6.91685C6.47112 7.33388 6.34234 7.8198 6.34234 8.3385C6.34234 9.31988 6.80626 10.1858 7.51014 10.6924C7.07981 10.6769 6.67508 10.5494 6.32076 10.3374V10.3727C6.32076 11.7427 7.22619 12.886 8.42676 13.1463C8.2068 13.21 7.97485 13.2453 7.73489 13.2453C7.56533 13.2453 7.40136 13.2272 7.24058 13.1928C7.57491 14.3172 8.54435 15.1348 9.69294 15.1572C8.7947 15.9155 7.66211 16.3661 6.43194 16.3661C6.21999 16.3661 6.01122 16.3523 5.80566 16.3273C6.96785 17.1312 8.3476 17.5999 9.83052 17.5999C14.6608 17.5999 17.3011 13.2902 17.3011 9.55252L17.2923 9.18635C17.8082 8.78998 18.2545 8.29198 18.6057 7.72504Z" fill="#F9F4F1"/>
</svg>
