<svg width="42" height="44" viewBox="0 0 42 44" fill="none" xmlns="http://www.w3.org/2000/svg">
<path d="M0.000976562 21.9999C0.000976562 10.4291 9.381 0.994141 20.9518 0.994141C32.5227 0.994141 41.9027 10.4291 41.9027 21.9999C41.9027 33.5708 32.5227 43.0057 20.9518 43.0057C9.381 43.0057 0.000976562 33.5708 0.000976562 21.9999Z" fill="#FBE5E4"/>
<path d="M24.647 22.7096C25.6274 21.9383 26.343 20.8806 26.6942 19.6836C27.0455 18.4866 27.0149 17.2099 26.6068 16.0311C26.1987 14.8523 25.4333 13.83 24.4171 13.1065C23.4009 12.383 22.1845 11.9941 20.937 11.9941C19.6896 11.9941 18.4731 12.383 17.4569 13.1065C16.4408 13.83 15.6754 14.8523 15.2672 16.0311C14.8591 17.2099 14.8285 18.4866 15.1798 19.6836C15.531 20.8806 16.2466 21.9383 17.227 22.7096C15.5471 23.3827 14.0813 24.499 12.9859 25.9396C11.8905 27.3801 11.2066 29.0909 11.007 30.8896C10.9926 31.021 11.0041 31.1538 11.041 31.2807C11.0779 31.4075 11.1395 31.5259 11.2221 31.629C11.389 31.8371 11.6318 31.9705 11.897 31.9996C12.1622 32.0288 12.4282 31.9514 12.6363 31.7845C12.8445 31.6176 12.9778 31.3749 13.007 31.1096C13.2266 29.1548 14.1587 27.3494 15.6252 26.0384C17.0918 24.7274 18.9899 24.0027 20.957 24.0027C22.9241 24.0027 24.8223 24.7274 26.2888 26.0384C27.7553 27.3494 28.6874 29.1548 28.907 31.1096C28.9342 31.3554 29.0514 31.5823 29.2361 31.7467C29.4208 31.911 29.6598 32.0011 29.907 31.9996H30.017C30.2791 31.9695 30.5187 31.8369 30.6836 31.6309C30.8484 31.4248 30.9251 31.162 30.897 30.8996C30.6965 29.0958 30.0089 27.3806 28.9079 25.9378C27.8068 24.4951 26.3339 23.3791 24.647 22.7096ZM20.937 21.9996C20.1459 21.9996 19.3725 21.765 18.7147 21.3255C18.0569 20.886 17.5442 20.2613 17.2415 19.5304C16.9387 18.7995 16.8595 17.9952 17.0139 17.2193C17.1682 16.4434 17.5492 15.7306 18.1086 15.1712C18.668 14.6118 19.3807 14.2308 20.1566 14.0765C20.9326 13.9222 21.7368 14.0014 22.4677 14.3041C23.1986 14.6069 23.8234 15.1196 24.2629 15.7774C24.7024 16.4352 24.937 17.2085 24.937 17.9996C24.937 19.0605 24.5156 20.0779 23.7654 20.8281C23.0153 21.5782 21.9979 21.9996 20.937 21.9996Z" fill="#DD2E44"/>
</svg>
