<?xml version="1.0" encoding="UTF-8"?>
<svg width="48px" height="48px" viewBox="0 0 48 48" version="1.1" xmlns="http://www.w3.org/2000/svg" xmlns:xlink="http://www.w3.org/1999/xlink">
    <title>470A4E29-7999-4E2A-A4AD-0AB6A0C47851</title>
    <g id="Components" stroke="none" stroke-width="1" fill="none" fill-rule="evenodd">
        <g id="Icons" transform="translate(-52.000000, -2437.000000)">
            <g id="icon-/-buttons-/-black-/-cart" transform="translate(52.000000, 2437.000000)">
                <rect id="Rectangle" fill-opacity="0.01" fill="#FFFFFF" x="0" y="0" width="48" height="48"></rect>
                <g id="shopping-cart" transform="translate(16.000000, 16.000000)" fill="#1A1A1A" fill-rule="nonzero">
                    <path d="M13.414217,12.5857785 C14.1952551,13.3668166 14.1952551,14.6331567 13.414217,15.4141947 C12.633179,16.1952328 11.3668388,16.1952328 10.5858008,15.4141947 C9.80476276,14.6331567 9.80476276,13.3668166 10.5858008,12.5857785 C11.3668388,11.8047405 12.633179,11.8047405 13.414217,12.5857785" id="Path"></path>
                    <path d="M7.41421256,12.5857785 C8.1952506,13.3668166 8.1952506,14.6331567 7.41421256,15.4141947 C6.63317452,16.1952328 5.36683439,16.1952328 4.58579635,15.4141947 C3.80475831,14.6331567 3.80475831,13.3668166 4.58579635,12.5857785 C5.36683439,11.8047405 6.63317452,11.8047405 7.41421256,12.5857785" id="Path"></path>
                    <polygon id="Path" points="3.84716923 3.00002005 3.34718371 3.5639427e-05 0 3.5639427e-05 0 2.000049 1.65281407 2.000049 3.15280627 11.0000379 13.6948062 11.0000379 16 4.80472935 16 3.00002005"></polygon>
                </g>
            </g>
        </g>
    </g>
</svg>