<?xml version="1.0" encoding="UTF-8"?>
<svg width="16px" height="16px" viewBox="0 0 16 16" version="1.1" xmlns="http://www.w3.org/2000/svg" xmlns:xlink="http://www.w3.org/1999/xlink">
    <title>778F34DF-9164-4E9F-91A0-FF41A13BF6A3</title>
    <g id="Mobile-" stroke="none" stroke-width="1" fill="none" fill-rule="evenodd">
        <g id="Sign-in-Flyout" transform="translate(-284.000000, -20.000000)" fill="#161616">
            <g id="close" transform="translate(284.000000, 20.000000)">
                <polygon id="Fill" points="15.5 1.8125 14.1875 0.5 8 6.6875 1.8125 0.5 0.5 1.8125 6.6875 8 0.5 14.1875 1.8125 15.5 8 9.3125 14.1875 15.5 15.5 14.1875 9.3125 8"></polygon>
            </g>
        </g>
    </g>
</svg>