<?xml version="1.0" encoding="UTF-8"?>
<svg width="26px" height="26px" viewBox="0 0 26 26" version="1.1" xmlns="http://www.w3.org/2000/svg" xmlns:xlink="http://www.w3.org/1999/xlink">
    <title>CF3C58C2-0848-450A-B843-ECFC31E7B936</title>
    <g id="Components" stroke="none" stroke-width="1" fill="none" fill-rule="evenodd">
        <g id="Icons" transform="translate(-740.000000, -3269.000000)">
            <g id="icon-/-general-/-close" transform="translate(740.000000, 3269.000000)">
                <rect id="Rectangle" x="0" y="0" width="26" height="26"></rect>
                <g id="close" transform="translate(5.000000, 5.000000)" fill="#161616">
                    <polygon id="Fill" points="15.5 1.8125 14.1875 0.5 8 6.6875 1.8125 0.5 0.5 1.8125 6.6875 8 0.5 14.1875 1.8125 15.5 8 9.3125 14.1875 15.5 15.5 14.1875 9.3125 8"></polygon>
                </g>
            </g>
        </g>
    </g>
</svg>