<?xml version="1.0" encoding="UTF-8"?>
<svg width="48px" height="48px" viewBox="0 0 48 48" version="1.1" xmlns="http://www.w3.org/2000/svg" xmlns:xlink="http://www.w3.org/1999/xlink">
    <title>B218109F-A731-4051-8D53-51E4F857C70B</title>
    <g id="Components" stroke="none" stroke-width="1" fill="none" fill-rule="evenodd">
        <g id="Icons" transform="translate(-280.000000, -2707.000000)">
            <g id="icon-/-buttons-/-disabled-/-favourite" transform="translate(280.000000, 2707.000000)">
                <rect id="Rectangle" fill-opacity="0.01" fill="#FFFFFF" x="0" y="0" width="48" height="48"></rect>
                <path d="M24.7858097,16.2635412 L26.9199765,21.314747 L32.383719,21.7841259 C32.7626671,21.8168533 32.9168301,22.2896771 32.6291741,22.5385771 L28.4848599,26.1291104 L29.7267761,31.470556 C29.8129007,31.8417529 29.410699,32.1337152 29.0851481,31.9364899 L24.3896367,29.1047141 L19.6941253,31.9364899 C19.3677132,32.1328539 18.9663727,31.8408916 19.0524973,31.470556 L20.2944135,26.1291104 L16.1492381,22.5377159 C15.8615821,22.2888159 16.0148838,21.815992 16.3946931,21.7832647 L21.8584357,21.3138858 L23.9926025,16.2635412 C24.1407367,15.9121529 24.6376755,15.9121529 24.7858097,16.2635412 Z" id="Path" fill="#5B5B5B" fill-rule="nonzero"></path>
            </g>
        </g>
    </g>
</svg>