<?xml version="1.0" encoding="UTF-8"?>
<svg width="1200px" height="670px" viewBox="0 0 1200 670" version="1.1" xmlns="http://www.w3.org/2000/svg" xmlns:xlink="http://www.w3.org/1999/xlink">
    <title>filmstrip-counter-pattern-desktop</title>
    <g id="Symbols" stroke="none" stroke-width="1" fill="none" fill-rule="evenodd">
        <g id="filmstrip-counter-pattern-desktop" stroke="#1656A0" stroke-width="3">
            <rect id="Rectangle" x="1.5" y="1.5" width="1197" height="667"></rect>
            <ellipse id="Oval" cx="601" cy="336" rx="293" ry="292"></ellipse>
            <circle id="Oval" cx="601" cy="337" r="249"></circle>
            <line x1="601.5" y1="336.5" x2="144.5" y2="1.5" id="Path-3"></line>
            <line x1="0" y1="337.5" x2="1200" y2="337.5" id="Path-4"></line>
            <line x1="601.5" y1="0" x2="601.5" y2="670" id="Path-6"></line>
        </g>
    </g>
</svg>