<?xml version="1.0" encoding="UTF-8"?>
<svg width="15px" height="15px" viewBox="0 0 15 15" version="1.1" xmlns="http://www.w3.org/2000/svg" xmlns:xlink="http://www.w3.org/1999/xlink">
    <title>6EF4E65A-7406-4612-83F7-C57418729148</title>
    <g id="Modals" stroke="none" stroke-width="1" fill="none" fill-rule="evenodd">
        <g id="P-2.3---Sign-In-" transform="translate(-239.000000, -175.000000)" fill="#FFFFFF" fill-rule="nonzero">
            <g id="login" transform="translate(80.000000, 126.000000)">
                <g id="google" transform="translate(159.000000, 48.000000)">
                    <path d="M14.8182624,6.52632553 L7.38746637,6.52632553 L7.38746637,10.0789535 L11.1246792,10.0789535 C10.6222887,11.5525077 9.4047407,12.4473721 7.84891765,12.4473721 C5.76891177,12.4473721 3.94373318,10.6019947 3.94373318,8.49845035 C3.94373318,6.39647883 5.76891177,4.55267419 7.84891765,4.55267419 C8.84338529,4.55267419 9.68405078,4.88032085 10.2802022,5.49962531 L10.5507236,5.78106005 L13.1132557,3.1374978 L12.8347079,2.85842223 C11.6217336,1.64261858 9.89798373,1 7.84896249,1 C3.7283205,1 0.5,4.29372092 0.5,8.49845035 C0.5,12.7047526 3.7283205,16 7.84891765,16 C11.6473374,16 14.3460943,13.7010612 14.8921143,10.0004071 C14.9632758,9.52038598 14.9996413,9.01515418 15,8.49845035 C15,7.9312326 14.9529177,7.31581382 14.8741333,6.85276948 L14.8182624,6.52632553 Z" id="Shape"></path>
                </g>
            </g>
        </g>
    </g>
</svg>