<?xml version="1.0" encoding="UTF-8"?>
<svg width="40px" height="32px" viewBox="0 0 40 32" version="1.1" xmlns="http://www.w3.org/2000/svg" xmlns:xlink="http://www.w3.org/1999/xlink">
    <title>1533A2B5-A58D-41BB-947F-3022FC575AE1</title>
    <g id="Desktop-" stroke="none" stroke-width="1" fill="none" fill-rule="evenodd" opacity="0.5">
        <g id="D-9.3-My-Profile---Projects" transform="translate(-1111.000000, -729.000000)" fill="#5B5B5B" fill-rule="nonzero">
            <g id="photo" transform="translate(1111.000000, 729.000000)">
                <path d="M38.3463687,4.09039106 L35.9776536,4.09039106 L35.9776536,1.67698324 C35.9776536,0.783128492 35.2625698,0.0680446927 34.3687151,0.0680446927 L1.60893855,0.0680446927 C0.715083799,0.0680446927 0,0.783128492 0,1.67698324 L0,25.9451397 C0,26.8389944 0.715083799,27.5540782 1.60893855,27.5540782 L3.97765363,27.5540782 L3.97765363,29.967486 C3.97765363,30.8613408 4.69273743,31.5764246 5.58659218,31.5764246 L38.301676,31.5764246 C39.1955307,31.5764246 39.9106145,30.8613408 39.9106145,29.967486 L39.9106145,5.74402235 C39.9553073,4.8501676 39.2402235,4.09039106 38.3463687,4.09039106 Z M1.65363128,1.6322905 L34.3687151,1.67698324 L34.3687151,18.2579888 L27.0391061,13.1630168 C26.7709497,12.9842458 26.4134078,12.9842458 26.1452514,13.1630168 L19.6648045,17.5875978 L12.3351955,10.392067 C12.0223464,10.1239106 11.575419,10.0792179 11.2625698,10.3473743 L1.60893855,18.3473743 L1.65363128,1.6322905 Z M1.56424581,25.9451397 L1.56424581,20.4032402 L11.7094972,12.0010056 L18.9944134,19.1518436 C19.2625698,19.42 19.7094972,19.4646927 20.0223464,19.2412291 L26.5921788,14.7719553 L34.3687151,20.1797765 L34.3687151,25.9451397 C34.3687151,25.9451397 34.3687151,25.9898324 34.3240223,25.9898324 L1.56424581,25.9451397 Z M38.3463687,30.0568715 L5.58659218,30.0121788 L5.58659218,27.5987709 L34.3687151,27.5987709 C35.2625698,27.5987709 35.9776536,26.8836872 35.9776536,25.9898324 L35.9776536,5.69932961 L38.3910615,5.74402235 L38.3463687,30.0568715 Z" id="Shape"></path>
                <path d="M24.7150838,4.1350838 C22.7486034,4.1350838 21.1843575,5.74402235 21.1843575,7.66581006 C21.1843575,9.58759777 22.7486034,11.1965363 24.7150838,11.1965363 C26.6815642,11.1965363 28.2458101,9.58759777 28.2458101,7.66581006 C28.2458101,5.74402235 26.6368715,4.1350838 24.7150838,4.1350838 Z M24.7150838,9.6322905 C23.6424581,9.6322905 22.7486034,8.73843575 22.7486034,7.66581006 C22.7486034,6.59318436 23.6424581,5.69932961 24.7150838,5.69932961 C25.7877095,5.69932961 26.6815642,6.59318436 26.6815642,7.66581006 C26.6815642,8.73843575 25.7877095,9.6322905 24.7150838,9.6322905 Z" id="Shape"></path>
            </g>
        </g>
    </g>
</svg>