<?xml version="1.0" encoding="UTF-8"?>
<svg width="48px" height="48px" viewBox="0 0 48 48" version="1.1" xmlns="http://www.w3.org/2000/svg" xmlns:xlink="http://www.w3.org/1999/xlink">
    <title>518037ED-E5EF-4F28-8665-3C8E4F25D590</title>
    <g id="Components" stroke="none" stroke-width="1" fill="none" fill-rule="evenodd">
        <g id="Icons" transform="translate(-520.000000, -2437.000000)">
            <g id="icon-/-buttons-/-black-/-project" transform="translate(520.000000, 2437.000000)">
                <rect id="Rectangle" fill-opacity="0.01" fill="#FFFFFF" x="0" y="0" width="48" height="48"></rect>
                <g id="folder" transform="translate(15.000000, 16.000000)" fill="#1A1A1A" fill-rule="nonzero">
                    <polygon id="Path" points="10.1755507 3.02545455 18.1527273 3.02545455 18.1527273 1.00848485 9.07636364 1.00848485"></polygon>
                    <polygon id="Path" points="6.67541727 0 0 0 0 15.1272727 18.1527273 15.1272727 18.1527273 3.76389487 9.33450818 3.76389487"></polygon>
                </g>
            </g>
        </g>
    </g>
</svg>