<?xml version="1.0" encoding="UTF-8"?>
<svg width="48px" height="48px" viewBox="0 0 48 48" version="1.1" xmlns="http://www.w3.org/2000/svg" xmlns:xlink="http://www.w3.org/1999/xlink">
    <title>366EFAC3-74C1-4777-96AD-F6C6F651D96C</title>
    <g id="Components" stroke="none" stroke-width="1" fill="none" fill-rule="evenodd">
        <g id="Icons" transform="translate(-1000.000000, -2617.000000)">
            <g id="icon-/-buttons-/-blue-/-reel" transform="translate(1000.000000, 2617.000000)">
                <rect id="Rectangle" fill-opacity="0.01" fill="#FFFFFF" x="0" y="0" width="48" height="48"></rect>
                <g id="cinema" transform="translate(15.000000, 16.000000)" fill="#214D7F" fill-rule="nonzero">
                    <path d="M12.3289272,14.6630728 C14.5113962,13.2378221 15.9568733,10.7739084 15.9568733,7.97843666 C15.9568733,3.57912668 12.3777898,0 7.97843666,0 C3.57908356,0 0,3.57912668 0,7.97843666 C0,12.3777466 3.57908356,15.9568733 7.97843666,15.9568733 L18.328841,15.9568733 L18.328841,14.6630728 L12.3289272,14.6630728 Z M7.97843666,6.03773585 C6.90829111,6.03773585 6.03773585,5.16713747 6.03773585,4.09703504 C6.03773585,3.02693261 6.90829111,2.15633423 7.97843666,2.15633423 C9.04858221,2.15633423 9.91913747,3.02693261 9.91913747,4.09703504 C9.91913747,5.16713747 9.04858221,6.03773585 7.97843666,6.03773585 Z M11.8598383,6.03773585 C12.9299838,6.03773585 13.8005391,6.90833423 13.8005391,7.97843666 C13.8005391,9.04853908 12.9299838,9.91913747 11.8598383,9.91913747 C10.7896927,9.91913747 9.91913747,9.04853908 9.91913747,7.97843666 C9.91913747,6.90833423 10.7896927,6.03773585 11.8598383,6.03773585 Z M6.03773585,7.97843666 C6.03773585,9.04853908 5.16713747,9.91913747 4.09703504,9.91913747 C3.02693261,9.91913747 2.15633423,9.04853908 2.15633423,7.97843666 C2.15633423,6.90833423 3.02693261,6.03773585 4.09703504,6.03773585 C5.16713747,6.03773585 6.03773585,6.90833423 6.03773585,7.97843666 Z M7.97843666,9.91913747 C9.04858221,9.91913747 9.91913747,10.7897358 9.91913747,11.8598383 C9.91913747,12.9299407 9.04858221,13.8005391 7.97843666,13.8005391 C6.90829111,13.8005391 6.03773585,12.9299407 6.03773585,11.8598383 C6.03773585,10.7897358 6.90829111,9.91913747 7.97843666,9.91913747 Z" id="XMLID_42_"></path>
                </g>
            </g>
        </g>
    </g>
</svg>