<?xml version="1.0" encoding="UTF-8"?>
<svg width="26px" height="26px" viewBox="0 0 26 26" version="1.1" xmlns="http://www.w3.org/2000/svg" xmlns:xlink="http://www.w3.org/1999/xlink">
    <title>D9CAAE76-B078-4D24-A067-D3B48DC7B8B5</title>
    <defs>
        <path d="M13,25.8571429 C5.92857143,25.8571429 0.142857143,20.0714286 0.142857143,13 C0.142857143,5.92857143 5.92857143,0.142857143 13,0.142857143 C20.0714286,0.142857143 25.8571429,5.92857143 25.8571429,13 C25.8571429,20.0714286 20.0714286,25.8571429 13,25.8571429 Z" id="path-1"></path>
    </defs>
    <g id="Components" stroke="none" stroke-width="1" fill="none" fill-rule="evenodd">
        <g id="Icons" transform="translate(-181.000000, -3403.000000)">
            <g id="Group-2" transform="translate(181.000000, 3403.000000)">
                <g id="Group">
                    <circle id="Oval" fill="#FFFFFF" cx="13" cy="13" r="13"></circle>
                    <mask id="mask-2" fill="white">
                        <use xlink:href="#path-1"></use>
                    </mask>
                    <use id="icon-color" fill="#FFFFFF" xlink:href="#path-1"></use>
                </g>
                <g id="Group-30" transform="translate(13.000000, 13.000000) rotate(-45.000000) translate(-13.000000, -13.000000) translate(5.000000, 5.000000)" stroke="#000000" stroke-width="2">
                    <line x1="3.06079948e-14" y1="8.25806452" x2="15.7550403" y2="8.25806452" id="Path-12"></line>
                    <line x1="8.25806452" y1="-1.09314267e-13" x2="8.25806452" y2="15.7550403" id="Path-12"></line>
                </g>
            </g>
        </g>
    </g>
</svg>