<?xml version="1.0" encoding="UTF-8"?>
<svg width="26px" height="26px" viewBox="0 0 26 26" version="1.1" xmlns="http://www.w3.org/2000/svg" xmlns:xlink="http://www.w3.org/1999/xlink">
    <title>D3E43520-DD91-423A-9B45-64C69E288FC7</title>
    <g id="Components" stroke="none" stroke-width="1" fill="none" fill-rule="evenodd">
        <g id="Icons" transform="translate(-247.000000, -3403.000000)" fill="#FFFFFF">
            <g id="icon-/-general-/-black-/-search" transform="translate(247.000000, 3403.000000)">
                <rect id="Rectangle" fill-opacity="0.01" x="0" y="0" width="26" height="26"></rect>
                <path d="M21.7654719,4.23762858 C18.7867842,1.25412381 13.9567382,1.25412381 10.9773675,4.23762858 C8.20308009,7.01604997 8.01589882,11.401491 10.4095687,14.4008489 L2,22.8221007 L3.17895081,24.0024535 L11.5843855,15.5853357 C14.5802923,18.0099568 18.9808675,17.8289586 21.7654719,15.0409031 C24.7448427,12.0573624 24.7448427,7.22045033 21.7654719,4.23762858 Z M20.6979959,13.971378 C18.3077411,16.3650839 14.4329774,16.3650839 12.0427226,13.971378 C9.65246775,11.5777082 9.65246775,7.69740848 12.0427226,5.30373859 C14.4329774,2.91006871 18.3077411,2.91006871 20.6979959,5.30373859 C23.0882507,7.69740848 23.0882867,11.5783552 20.6979959,13.971378 Z" id="Shape" fill-rule="nonzero" transform="translate(13.000000, 13.001227) scale(-1, 1) translate(-13.000000, -13.001227) "></path>
            </g>
        </g>
    </g>
</svg>