<?xml version="1.0" encoding="UTF-8"?>
<svg width="48px" height="48px" viewBox="0 0 48 48" version="1.1" xmlns="http://www.w3.org/2000/svg" xmlns:xlink="http://www.w3.org/1999/xlink">
    <title>62B055AF-4B6E-4A21-B6C8-498303D5EE06</title>
    <g id="Components" stroke="none" stroke-width="1" fill="none" fill-rule="evenodd">
        <g id="Icons" transform="translate(-760.000000, -2617.000000)">
            <g id="icon-/-buttons-/-blue-/-share" transform="translate(760.000000, 2617.000000)">
                <rect id="Rectangle" fill-opacity="0.01" fill="#FFFFFF" x="0" y="0" width="48" height="48"></rect>
                <g id="share" transform="translate(17.000000, 16.000000)" fill="#214D7F" fill-rule="nonzero">
                    <path d="M13.9360947,2.77039977 C13.9360947,3.94166211 12.98668,4.89116958 11.8153846,4.89116958 C10.6440893,4.89116958 9.69467456,3.94166211 9.69467456,2.77039977 C9.69467456,1.59925694 10.6440893,0.649749465 11.8153846,0.649749465 C12.98668,0.649749465 13.9360947,1.59925694 13.9360947,2.77039977 L13.9360947,2.77039977 Z" id="Path"></path>
                    <path d="M11.8153846,5.49708674 C10.3115895,5.49708674 9.0887574,4.27415782 9.0887574,2.77039711 C9.0887574,1.26676123 10.3115895,0.0438323052 11.8153846,0.0438323052 C13.3191798,0.0438323052 14.5420118,1.26676123 14.5420118,2.77039711 C14.5420118,4.27415782 13.3191798,5.49708674 11.8153846,5.49708674 Z M11.8153846,1.06630971 C10.8753878,1.06630971 10.1112582,1.83117074 10.1112582,2.77039711 C10.1112582,3.70974831 10.8753878,4.47460934 11.8153846,4.47460934 C12.7553814,4.47460934 13.519511,3.70974831 13.519511,2.77039711 C13.519511,1.83117074 12.7553814,1.06630971 11.8153846,1.06630971 Z" id="Shape"></path>
                    <path d="M13.9360947,13.071111 C13.9360947,14.2422538 12.98668,15.1917613 11.8153846,15.1917613 C10.6440893,15.1917613 9.69467456,14.2422538 9.69467456,13.071111 C9.69467456,11.8998487 10.6440893,10.9503412 11.8153846,10.9503412 C12.98668,10.9503412 13.9360947,11.8998487 13.9360947,13.071111 L13.9360947,13.071111 Z" id="Path"></path>
                    <path d="M11.8153846,15.7976785 C10.3115895,15.7976785 9.0887574,14.5747495 9.0887574,13.0711137 C9.0887574,11.5673529 10.3115895,10.344424 11.8153846,10.344424 C13.3191798,10.344424 14.5420118,11.5673529 14.5420118,13.0711137 C14.5420118,14.5747495 13.3191798,15.7976785 11.8153846,15.7976785 Z M11.8153846,11.3669014 C10.8753878,11.3669014 10.1112582,12.1317625 10.1112582,13.0711137 C10.1112582,14.01034 10.8753878,14.7752011 11.8153846,14.7752011 C12.7553814,14.7752011 13.519511,14.01034 13.519511,13.0711137 C13.519511,12.1317625 12.7553814,11.3669014 11.8153846,11.3669014 L11.8153846,11.3669014 Z" id="Shape"></path>
                    <path d="M4.84733728,7.6177968 C4.84733728,8.78909214 3.8978298,9.73850686 2.72656747,9.73850686 C1.55542464,9.73850686 0.60591716,8.78909214 0.60591716,7.6177968 C0.60591716,6.44650147 1.55542464,5.49708674 2.72656747,5.49708674 C3.8978298,5.49708674 4.84733728,6.44650147 4.84733728,7.6177968 Z" id="Path"></path>
                    <path d="M2.7265648,10.344424 C1.22292892,10.344424 0,9.12159194 0,7.6177968 C0,6.11400166 1.22292892,4.89116958 2.7265648,4.89116958 C4.23032551,4.89116958 5.45325444,6.11400166 5.45325444,7.6177968 C5.45325444,9.12159194 4.23032551,10.344424 2.7265648,10.344424 Z M2.7265648,5.9136704 C1.78658953,5.9136704 1.0224774,6.67842409 1.0224774,7.6177968 C1.0224774,8.55716951 1.78658953,9.32192321 2.7265648,9.32192321 C3.66666487,9.32192321 4.43077703,8.55716951 4.43077703,7.6177968 C4.43077703,6.67842409 3.66666487,5.9136704 2.7265648,5.9136704 Z" id="Shape"></path>
                    <path d="M4.28080437,7.92075538 C4.05640942,7.92075538 3.83850667,7.80036339 3.71987599,7.58502116 C3.54387762,7.26657277 3.6522388,6.8603563 3.96103271,6.67812494 L9.94273422,3.16131523 C10.2515281,2.97847523 10.6454292,3.09022431 10.8221358,3.40989003 C10.9981342,3.72833842 10.889773,4.13455489 10.5809791,4.31678625 L4.59915955,7.83359596 C4.49858906,7.89275723 4.38904749,7.92075538 4.28080437,7.92075538 Z" id="Path"></path>
                    <path d="M10.2612909,12.7680927 C10.1529289,12.7680927 10.0433864,12.7400938 9.94281509,12.6809309 L3.96094663,9.16402638 C3.6521502,8.9825205 3.5439062,8.57629308 3.71990598,8.25710571 C3.89519755,7.93804007 4.28969206,7.82567928 4.59919675,8.00852422 L10.5810652,11.5254287 C10.8898616,11.7069346 10.9981056,12.113162 10.8221058,12.4323494 C10.702884,12.6476974 10.4849795,12.7680927 10.2612909,12.7680927 L10.2612909,12.7680927 Z" id="Path"></path>
                </g>
            </g>
        </g>
    </g>
</svg>