<?xml version="1.0" encoding="UTF-8"?>
<svg width="60px" height="60px" viewBox="0 0 60 60" version="1.1" xmlns="http://www.w3.org/2000/svg" xmlns:xlink="http://www.w3.org/1999/xlink">
    <title>15E034EB-0722-45B2-879E-A162BD84F550</title>
    <defs>
        <path d="M45,22.2857143 L42,19.2857143 L25.7142857,35.5714286 L18,27.8571429 L15,30.8571429 L25.7142857,41.5714286 L45,22.2857143 Z M30,0 C13.5,0 0,13.5 0,30 C0,46.5 13.5,60 30,60 C46.5,60 60,46.5 60,30 C60,13.5 46.5,0 30,0 Z M30,55.7142857 C15.8571429,55.7142857 4.28571429,44.1428571 4.28571429,30 C4.28571429,15.8571429 15.8571429,4.28571429 30,4.28571429 C44.1428571,4.28571429 55.7142857,15.8571429 55.7142857,30 C55.7142857,44.1428571 44.1428571,55.7142857 30,55.7142857 Z" id="path-1"></path>
    </defs>
    <g id="Components" stroke="none" stroke-width="1" fill="none" fill-rule="evenodd">
        <g id="Icons" transform="translate(-1254.000000, -3252.000000)">
            <g id="icon-/-progress-incator-/-done" transform="translate(1254.000000, 3252.000000)">
                <mask id="mask-2" fill="white">
                    <use xlink:href="#path-1"></use>
                </mask>
                <use id="icon-color" fill="#00BD00" xlink:href="#path-1"></use>
            </g>
        </g>
    </g>
</svg>