<?xml version="1.0" encoding="UTF-8"?>
<svg width="24px" height="26px" viewBox="0 0 24 26" version="1.1" xmlns="http://www.w3.org/2000/svg" xmlns:xlink="http://www.w3.org/1999/xlink">
    <title>8751CF51-73D2-4021-B685-3D909EF38AD9</title>
    <g id="Components" stroke="none" stroke-width="1" fill="none" fill-rule="evenodd">
        <g id="Icons" transform="translate(-514.000000, -2985.000000)" fill="#00BD00" fill-rule="nonzero">
            <g id="Shape" transform="translate(514.000000, 2985.000000)">
                <path d="M21.5848131,9.29672232 L20.9607187,9.29672232 L20.9607187,6.28544102 C20.9607187,6.26666062 20.9577459,6.24773866 20.9554809,6.22858076 C20.95449,6.10915064 20.9161742,5.99165517 20.8343049,5.89864973 L15.8229583,0.17430853 C15.8214483,0.172845735 15.8199855,0.172326679 15.8189474,0.170722323 C15.789078,0.137361162 15.7542541,0.109615245 15.7174483,0.0855970962 C15.7065481,0.0782831216 15.6955535,0.0721488203 15.6841343,0.0656842105 C15.6522359,0.0484137931 15.6184029,0.0338330309 15.5835789,0.0234047187 C15.5741416,0.0209038113 15.5656479,0.0170344828 15.5562105,0.0145335753 C15.5183666,0.00561524501 15.4790599,0 15.4392341,0 L3.12377495,0 C2.56140109,0 2.10453721,0.45738294 2.10453721,1.01928494 L2.10453721,9.29648639 L1.48058439,9.29648639 C0.676094374,9.29648639 0.0237822142,9.94851543 0.0237822142,10.7532886 L0.0237822142,18.3289147 C0.0237822142,19.1328857 0.676094374,19.7855753 1.48058439,19.7855753 L2.10458439,19.7855753 L2.10458439,24.9713249 C2.10458439,25.5331797 2.56144828,25.9906098 3.12382214,25.9906098 L19.941245,25.9906098 C20.5030998,25.9906098 20.9604828,25.5332269 20.9604828,24.9713249 L20.9604828,19.7855753 L21.5845771,19.7855753 C22.3888312,19.7855753 23.0412849,19.1331216 23.0412849,18.3289147 L23.0412849,10.7535245 C23.0412849,9.94851543 22.3892559,9.29672232 21.5848131,9.29672232 Z M3.12377495,1.01928494 L14.9296152,1.01928494 L14.9296152,6.23391289 C14.9296152,6.51547731 15.1580472,6.74353176 15.4392341,6.74353176 L19.9411978,6.74353176 L19.9411978,9.29672232 L3.12377495,9.29672232 L3.12377495,1.01928494 Z M14.5600944,16.7204065 L14.5600944,18.19849 L9.69733938,18.19849 L9.69733938,10.4143448 L11.4649619,10.4143448 L11.4649619,16.7204065 L14.5600944,16.7204065 Z M2.04083485,18.1982541 L4.29306715,14.260127 L2.12157169,10.4143448 L4.14272958,10.4143448 L4.82406171,11.8346243 C5.05523049,12.3079093 5.22854809,12.6894628 5.4134265,13.1282069 L5.43621779,13.1282069 C5.62147368,12.6313757 5.7712922,12.284882 5.96749546,11.8346243 L6.62594192,10.4143448 L8.63553902,10.4143448 L6.44092196,14.2140726 L8.75124138,18.1984428 L6.71838113,18.1984428 L6.0139274,16.7895354 C5.72537931,16.2465554 5.54035935,15.8424936 5.32103448,15.3920944 L5.29791289,15.3920944 C5.13601452,15.8427296 4.94009437,16.2470744 4.69760073,16.7895354 L4.05062069,18.1984428 L2.04083485,18.1984428 L2.04083485,18.1982541 Z M19.941245,24.6954229 L3.12377495,24.6954229 L3.12377495,19.7855753 L19.941245,19.7855753 L19.941245,24.6954229 L19.941245,24.6954229 Z M17.5046062,18.3144283 C16.6157459,18.3144283 15.7376443,18.0830236 15.2991833,17.8406715 L15.6567659,16.3854737 C16.1305227,16.6278258 16.8581452,16.8706969 17.6091252,16.8706969 C18.4178621,16.8706969 18.8448566,16.5357169 18.8448566,16.027608 C18.8448566,15.5423848 18.4753358,15.2652087 17.5397132,14.9302287 C16.2462722,14.4795935 15.4029946,13.7636733 15.4029946,12.6313757 C15.4029946,11.3030635 16.5117931,10.2869401 18.3487332,10.2869401 C19.226127,10.2869401 19.8731071,10.4722432 20.3349728,10.6796298 L19.9422831,12.1003811 C19.6305191,11.9500436 19.0758838,11.7307187 18.3139093,11.7307187 C17.5517459,11.7307187 17.182225,12.0769764 17.182225,12.4816044 C17.182225,12.9782468 17.6206388,13.197902 18.6257205,13.579078 C20.0000399,14.0872341 20.64702,14.8029183 20.64702,15.9002505 C20.6464065,17.2056298 19.6418911,18.3144283 17.5046062,18.3144283 Z"></path>
            </g>
        </g>
    </g>
</svg>