<svg width="20" height="20" viewBox="0 0 20 20" fill="none" xmlns="http://www.w3.org/2000/svg">
<path fill-rule="evenodd" clip-rule="evenodd" d="M15.0002 13.0002C14.7443 13.0002 14.4882 12.9023 14.2933 12.7073L10.0002 8.41425L5.70725 12.7073C5.31625 13.0982 4.68425 13.0982 4.29325 12.7073C3.90225 12.3163 3.90225 11.6842 4.29325 11.2933L9.29325 6.29325C9.68425 5.90225 10.3163 5.90225 10.7073 6.29325L15.7072 11.2933C16.0982 11.6842 16.0982 12.3163 15.7072 12.7073C15.5122 12.9023 15.2562 13.0002 15.0002 13.0002Z" fill="#1D221F"/>
<mask id="mask0" mask-type="alpha" maskUnits="userSpaceOnUse" x="4" y="6" width="13" height="8">
<path fill-rule="evenodd" clip-rule="evenodd" d="M15.0002 13.0002C14.7443 13.0002 14.4882 12.9023 14.2933 12.7073L10.0002 8.41425L5.70725 12.7073C5.31625 13.0982 4.68425 13.0982 4.29325 12.7073C3.90225 12.3163 3.90225 11.6842 4.29325 11.2933L9.29325 6.29325C9.68425 5.90225 10.3163 5.90225 10.7073 6.29325L15.7072 11.2933C16.0982 11.6842 16.0982 12.3163 15.7072 12.7073C15.5122 12.9023 15.2562 13.0002 15.0002 13.0002Z" fill="white"/>
</mask>
<g mask="url(#mask0)">
</g>
</svg>
