<svg width="20" height="20" viewBox="0 0 20 20" fill="none" xmlns="http://www.w3.org/2000/svg">
<path fill-rule="evenodd" clip-rule="evenodd" d="M8.00025 16.0002C7.74425 16.0002 7.48825 15.9022 7.29325 15.7072C6.90225 15.3162 6.90225 14.6842 7.29325 14.2933L11.5862 10.0002L7.29325 5.70725C6.90225 5.31625 6.90225 4.68425 7.29325 4.29325C7.68425 3.90225 8.31625 3.90225 8.70725 4.29325L13.7073 9.29325C14.0982 9.68425 14.0982 10.3163 13.7073 10.7073L8.70725 15.7072C8.51225 15.9022 8.25625 16.0002 8.00025 16.0002Z" fill="#1D221F"/>
<mask id="mask0" mask-type="alpha" maskUnits="userSpaceOnUse" x="7" y="4" width="8" height="13">
<path fill-rule="evenodd" clip-rule="evenodd" d="M8.00025 16.0002C7.74425 16.0002 7.48825 15.9022 7.29325 15.7072C6.90225 15.3162 6.90225 14.6842 7.29325 14.2933L11.5862 10.0002L7.29325 5.70725C6.90225 5.31625 6.90225 4.68425 7.29325 4.29325C7.68425 3.90225 8.31625 3.90225 8.70725 4.29325L13.7073 9.29325C14.0982 9.68425 14.0982 10.3163 13.7073 10.7073L8.70725 15.7072C8.51225 15.9022 8.25625 16.0002 8.00025 16.0002Z" fill="white"/>
</mask>
<g mask="url(#mask0)">
</g>
</svg>
