<svg width="24" height="24" viewBox="0 0 24 24" fill="none" xmlns="http://www.w3.org/2000/svg">
<path fill-rule="evenodd" clip-rule="evenodd" d="M0 12C0 18.6168 5.3832 24 12 24C18.6168 24 24 18.6168 24 12C24 5.3832 18.6168 0 12 0C5.3832 0 0 5.3832 0 12ZM21.6 12C21.6 17.2932 17.2932 21.6 12 21.6C6.7068 21.6 2.4 17.2932 2.4 12C2.4 6.7068 6.7068 2.4 12 2.4C17.2932 2.4 21.6 6.7068 21.6 12ZM6.3516 11.1516C5.8824 11.6208 5.8824 12.3792 6.3516 12.8484L9.9516 16.4484C10.4208 16.9176 11.1792 16.9176 11.6484 16.4484C12.1176 15.9792 12.1176 15.2208 11.6484 14.7516L10.0968 13.2H16.8C17.4636 13.2 18 12.6624 18 12C18 11.3376 17.4636 10.8 16.8 10.8H10.0968L11.6484 9.2484C11.8824 9.0144 12 8.7072 12 8.4C12 8.0928 11.8824 7.7856 11.6484 7.5516C11.1792 7.0824 10.4208 7.0824 9.9516 7.5516L6.3516 11.1516Z" fill="#637381"/>
<mask id="mask0" mask-type="alpha" maskUnits="userSpaceOnUse" x="0" y="0" width="24" height="24">
<path fill-rule="evenodd" clip-rule="evenodd" d="M0 12C0 18.6168 5.3832 24 12 24C18.6168 24 24 18.6168 24 12C24 5.3832 18.6168 0 12 0C5.3832 0 0 5.3832 0 12ZM21.6 12C21.6 17.2932 17.2932 21.6 12 21.6C6.7068 21.6 2.4 17.2932 2.4 12C2.4 6.7068 6.7068 2.4 12 2.4C17.2932 2.4 21.6 6.7068 21.6 12ZM6.3516 11.1516C5.8824 11.6208 5.8824 12.3792 6.3516 12.8484L9.9516 16.4484C10.4208 16.9176 11.1792 16.9176 11.6484 16.4484C12.1176 15.9792 12.1176 15.2208 11.6484 14.7516L10.0968 13.2H16.8C17.4636 13.2 18 12.6624 18 12C18 11.3376 17.4636 10.8 16.8 10.8H10.0968L11.6484 9.2484C11.8824 9.0144 12 8.7072 12 8.4C12 8.0928 11.8824 7.7856 11.6484 7.5516C11.1792 7.0824 10.4208 7.0824 9.9516 7.5516L6.3516 11.1516Z" fill="white"/>
</mask>
<g mask="url(#mask0)">
</g>
</svg>
