<svg width="20" height="20" viewBox="0 0 20 20" fill="none" xmlns="http://www.w3.org/2000/svg">
<path fill-rule="evenodd" clip-rule="evenodd" d="M11.4143 10.0002L17.7072 3.70725C18.0982 3.31625 18.0982 2.68425 17.7072 2.29325C17.3162 1.90225 16.6842 1.90225 16.2933 2.29325L10.0002 8.58625L3.70725 2.29325C3.31625 1.90225 2.68425 1.90225 2.29325 2.29325C1.90225 2.68425 1.90225 3.31625 2.29325 3.70725L8.58625 10.0002L2.29325 16.2933C1.90225 16.6842 1.90225 17.3162 2.29325 17.7072C2.48825 17.9022 2.74425 18.0002 3.00025 18.0002C3.25625 18.0002 3.51225 17.9022 3.70725 17.7072L10.0002 11.4143L16.2933 17.7072C16.4882 17.9022 16.7443 18.0002 17.0002 18.0002C17.2562 18.0002 17.5122 17.9022 17.7072 17.7072C18.0982 17.3162 18.0982 16.6842 17.7072 16.2933L11.4143 10.0002Z" fill="#1D221F"/>
<mask id="mask0" mask-type="alpha" maskUnits="userSpaceOnUse" x="2" y="2" width="17" height="17">
<path fill-rule="evenodd" clip-rule="evenodd" d="M11.4143 10.0002L17.7072 3.70725C18.0982 3.31625 18.0982 2.68425 17.7072 2.29325C17.3162 1.90225 16.6842 1.90225 16.2933 2.29325L10.0002 8.58625L3.70725 2.29325C3.31625 1.90225 2.68425 1.90225 2.29325 2.29325C1.90225 2.68425 1.90225 3.31625 2.29325 3.70725L8.58625 10.0002L2.29325 16.2933C1.90225 16.6842 1.90225 17.3162 2.29325 17.7072C2.48825 17.9022 2.74425 18.0002 3.00025 18.0002C3.25625 18.0002 3.51225 17.9022 3.70725 17.7072L10.0002 11.4143L16.2933 17.7072C16.4882 17.9022 16.7443 18.0002 17.0002 18.0002C17.2562 18.0002 17.5122 17.9022 17.7072 17.7072C18.0982 17.3162 18.0982 16.6842 17.7072 16.2933L11.4143 10.0002Z" fill="white"/>
</mask>
<g mask="url(#mask0)">
</g>
</svg>
