<svg width="20" height="20" viewBox="0 0 20 20" fill="none" xmlns="http://www.w3.org/2000/svg">
<path fill-rule="evenodd" clip-rule="evenodd" d="M6 11H14V9H6V11ZM6 15H14V13H6V15ZM6 7H10V5H6V7ZM15.707 5.293L12.707 2.293C12.52 2.105 12.266 2 12 2H5C4.447 2 4 2.448 4 3V17C4 17.552 4.447 18 5 18H15C15.553 18 16 17.552 16 17V6C16 5.735 15.895 5.48 15.707 5.293Z" fill="#1D221F"/>
<mask id="mask0" mask-type="alpha" maskUnits="userSpaceOnUse" x="4" y="2" width="12" height="16">
<path fill-rule="evenodd" clip-rule="evenodd" d="M6 11H14V9H6V11ZM6 15H14V13H6V15ZM6 7H10V5H6V7ZM15.707 5.293L12.707 2.293C12.52 2.105 12.266 2 12 2H5C4.447 2 4 2.448 4 3V17C4 17.552 4.447 18 5 18H15C15.553 18 16 17.552 16 17V6C16 5.735 15.895 5.48 15.707 5.293Z" fill="white"/>
</mask>
<g mask="url(#mask0)">
</g>
</svg>
