<svg width="20" height="20" viewBox="0 0 20 20" fill="none" xmlns="http://www.w3.org/2000/svg">
<path fill-rule="evenodd" clip-rule="evenodd" d="M3 6.99993C2.447 6.99993 2 6.55193 2 5.99993C2 5.44793 2.447 4.99993 3 4.99993H5.586L8.293 2.29293C8.537 2.04793 8.892 1.94693 9.229 2.02693C9.567 2.10593 9.839 2.35493 9.948 2.68393L11.438 7.14893L13.293 5.29293C13.48 5.10493 13.734 4.99993 14 4.99993H17C17.553 4.99993 18 5.44793 18 5.99993C18 6.55193 17.553 6.99993 17 6.99993H14.414L11.707 9.70693C11.518 9.89693 11.262 9.99993 11 9.99993C10.924 9.99993 10.847 9.99093 10.771 9.97293C10.433 9.89393 10.161 9.64493 10.052 9.31593L8.562 4.85093L6.707 6.70693C6.52 6.89493 6.266 6.99993 6 6.99993H3ZM17 8.99993C17.553 8.99993 18 9.44793 18 9.99993V16.9999C18 17.5519 17.553 17.9999 17 17.9999H3C2.447 17.9999 2 17.5519 2 16.9999V9.99993C2 9.44793 2.447 8.99993 3 8.99993C3.553 8.99993 4 9.44793 4 9.99993V12.9999H6.382C6.761 12.9999 7.107 13.2139 7.276 13.5529L8 14.9999H12L12.724 13.5529C12.893 13.2139 13.239 12.9999 13.618 12.9999H16V9.99993C16 9.44793 16.447 8.99993 17 8.99993Z" fill="#1D221F"/>
</svg>
