<svg width="20" height="20" viewBox="0 0 20 20" fill="none" xmlns="http://www.w3.org/2000/svg">
<path fill-rule="evenodd" clip-rule="evenodd" d="M10 2C5.589 2 2 5.589 2 10C2 14.411 5.589 18 10 18C14.411 18 18 14.411 18 10C18 5.589 14.411 2 10 2ZM10 16C6.691 16 4 13.309 4 10C4 6.691 6.691 4 10 4C13.309 4 16 6.691 16 10C16 13.309 13.309 16 10 16ZM13 9H11V7C11 6.448 10.553 6 10 6C9.447 6 9 6.448 9 7V9H7C6.447 9 6 9.448 6 10C6 10.552 6.447 11 7 11H9V13C9 13.552 9.447 14 10 14C10.553 14 11 13.552 11 13V11H13C13.553 11 14 10.552 14 10C14 9.448 13.553 9 13 9Z" fill="#1D221F"/>
<mask id="mask0" mask-type="alpha" maskUnits="userSpaceOnUse" x="2" y="2" width="16" height="16">
<path fill-rule="evenodd" clip-rule="evenodd" d="M10 2C5.589 2 2 5.589 2 10C2 14.411 5.589 18 10 18C14.411 18 18 14.411 18 10C18 5.589 14.411 2 10 2ZM10 16C6.691 16 4 13.309 4 10C4 6.691 6.691 4 10 4C13.309 4 16 6.691 16 10C16 13.309 13.309 16 10 16ZM13 9H11V7C11 6.448 10.553 6 10 6C9.447 6 9 6.448 9 7V9H7C6.447 9 6 9.448 6 10C6 10.552 6.447 11 7 11H9V13C9 13.552 9.447 14 10 14C10.553 14 11 13.552 11 13V11H13C13.553 11 14 10.552 14 10C14 9.448 13.553 9 13 9Z" fill="white"/>
</mask>
<g mask="url(#mask0)">
</g>
</svg>
