<svg width="20" height="20" viewBox="0 0 20 20" fill="none" xmlns="http://www.w3.org/2000/svg">
<path fill-rule="evenodd" clip-rule="evenodd" d="M10 0C4.486 0 0 4.486 0 10C0 15.513 4.486 20 10 20C15.514 20 20 15.513 20 10C20 4.486 15.514 0 10 0ZM15.603 15.7C14.199 14.841 12.257 14 10 14C7.744 14 5.801 14.842 4.396 15.7C2.919 14.248 2 12.23 2 10C2 5.589 5.589 2 10 2C14.411 2 18 5.589 18 10C18 12.23 17.081 14.248 15.603 15.7ZM6.149 17.009C7.218 16.457 8.537 16 10 16C11.464 16 12.782 16.457 13.851 17.008C12.707 17.638 11.395 18 10 18C8.604 18 7.292 17.638 6.149 17.009ZM10 9.9998C8.897 9.9998 8 9.1028 8 7.9998C8 6.8968 8.897 5.9998 10 5.9998C11.103 5.9998 12 6.8968 12 7.9998C12 9.1028 11.103 9.9998 10 9.9998ZM10 3.9998C7.794 3.9998 6 5.7938 6 7.9998C6 10.2058 7.794 11.9998 10 11.9998C12.206 11.9998 14 10.2058 14 7.9998C14 5.7938 12.206 3.9998 10 3.9998Z" fill="#1D221F"/>
<mask id="mask0" mask-type="alpha" maskUnits="userSpaceOnUse" x="0" y="0" width="20" height="20">
<path fill-rule="evenodd" clip-rule="evenodd" d="M10 0C4.486 0 0 4.486 0 10C0 15.513 4.486 20 10 20C15.514 20 20 15.513 20 10C20 4.486 15.514 0 10 0ZM15.603 15.7C14.199 14.841 12.257 14 10 14C7.744 14 5.801 14.842 4.396 15.7C2.919 14.248 2 12.23 2 10C2 5.589 5.589 2 10 2C14.411 2 18 5.589 18 10C18 12.23 17.081 14.248 15.603 15.7ZM6.149 17.009C7.218 16.457 8.537 16 10 16C11.464 16 12.782 16.457 13.851 17.008C12.707 17.638 11.395 18 10 18C8.604 18 7.292 17.638 6.149 17.009ZM10 9.9998C8.897 9.9998 8 9.1028 8 7.9998C8 6.8968 8.897 5.9998 10 5.9998C11.103 5.9998 12 6.8968 12 7.9998C12 9.1028 11.103 9.9998 10 9.9998ZM10 3.9998C7.794 3.9998 6 5.7938 6 7.9998C6 10.2058 7.794 11.9998 10 11.9998C12.206 11.9998 14 10.2058 14 7.9998C14 5.7938 12.206 3.9998 10 3.9998Z" fill="white"/>
</mask>
<g mask="url(#mask0)">
</g>
</svg>
