<svg width="20" height="20" viewBox="0 0 20 20" fill="none" xmlns="http://www.w3.org/2000/svg">
<path fill-rule="evenodd" clip-rule="evenodd" d="M19.4916 11.897L17.9326 11.017C17.9776 10.675 17.9996 10.335 17.9996 10C17.9996 9.665 17.9776 9.325 17.9326 8.982L19.4916 8.103C19.7256 7.97 19.8966 7.75 19.9656 7.491C20.0356 7.231 19.9976 6.954 19.8616 6.723L17.8146 3.259C17.5376 2.791 16.9396 2.63 16.4616 2.897L14.9706 3.738C14.3706 3.262 13.7046 2.873 12.9996 2.586V1C12.9996 0.448 12.5526 0 11.9996 0H7.99959C7.44759 0 6.99959 0.448 6.99959 1V2.586C6.29459 2.873 5.62859 3.262 5.02959 3.738L3.53759 2.897C3.06259 2.63 2.46259 2.791 2.18559 3.259L0.138595 6.723C0.00159481 6.954 -0.0354052 7.231 0.0345948 7.491C0.103595 7.75 0.274595 7.97 0.508595 8.103L2.06759 8.982C2.02259 9.325 1.99959 9.665 1.99959 10C1.99959 10.335 2.02259 10.675 2.06759 11.017L0.508595 11.897C0.274595 12.029 0.103595 12.25 0.0345948 12.509C-0.0354052 12.769 0.00159481 13.045 0.138595 13.277L2.18559 16.741C2.46259 17.209 3.06259 17.372 3.53759 17.103L5.02959 16.261C5.62859 16.738 6.29459 17.127 6.99959 17.413V19C6.99959 19.552 7.44759 20 7.99959 20H11.9996C12.5526 20 12.9996 19.552 12.9996 19V17.413C13.7046 17.127 14.3706 16.738 14.9706 16.261L16.4616 17.103C16.9396 17.372 17.5376 17.209 17.8146 16.741L19.8616 13.277C19.9976 13.045 20.0356 12.769 19.9656 12.509C19.8966 12.25 19.7256 12.029 19.4916 11.897ZM15.8486 8.678C15.9496 9.126 15.9996 9.571 15.9996 10C15.9996 10.428 15.9496 10.873 15.8486 11.322C15.7516 11.752 15.9486 12.195 16.3326 12.411L17.6196 13.137L16.5906 14.879L15.3376 14.172C14.9546 13.956 14.4716 14.016 14.1546 14.322C13.4636 14.985 12.6196 15.478 11.7146 15.747C11.2906 15.873 10.9996 16.263 10.9996 16.706V18H8.99959V16.706C8.99959 16.263 8.7086 15.873 8.28559 15.747C7.37959 15.478 6.53559 14.985 5.84559 14.322C5.52859 14.016 5.04459 13.956 4.66159 14.172L3.40959 14.879L2.37959 13.137L3.66659 12.411C4.05159 12.195 4.24759 11.752 4.15159 11.322C4.05059 10.873 3.99959 10.428 3.99959 10C3.99959 9.571 4.05059 9.126 4.15159 8.678C4.24759 8.248 4.05159 7.805 3.66659 7.588L2.37959 6.862L3.40959 5.12L4.66159 5.827C5.04559 6.044 5.52859 5.984 5.84559 5.678C6.53559 5.014 7.37959 4.522 8.28559 4.252C8.7086 4.126 8.99959 3.736 8.99959 3.294V2H10.9996V3.294C10.9996 3.736 11.2906 4.126 11.7146 4.252C12.6196 4.522 13.4636 5.014 14.1546 5.678C14.4716 5.984 14.9536 6.043 15.3376 5.827L16.5906 5.12L17.6196 6.862L16.3326 7.588C15.9486 7.805 15.7516 8.248 15.8486 8.678ZM9.99989 5.9998C7.79389 5.9998 5.99989 7.7938 5.99989 9.9998C5.99989 12.2058 7.79389 13.9998 9.99989 13.9998C12.2059 13.9998 13.9999 12.2058 13.9999 9.9998C13.9999 7.7938 12.2059 5.9998 9.99989 5.9998ZM9.99989 11.9998C8.89689 11.9998 7.99989 11.1028 7.99989 9.9998C7.99989 8.8968 8.89689 7.9998 9.99989 7.9998C11.1029 7.9998 11.9999 8.8968 11.9999 9.9998C11.9999 11.1028 11.1029 11.9998 9.99989 11.9998Z" fill="#1D221F"/>
<mask id="mask0" mask-type="alpha" maskUnits="userSpaceOnUse" x="0" y="0" width="20" height="20">
<path fill-rule="evenodd" clip-rule="evenodd" d="M19.4916 11.897L17.9326 11.017C17.9776 10.675 17.9996 10.335 17.9996 10C17.9996 9.665 17.9776 9.325 17.9326 8.982L19.4916 8.103C19.7256 7.97 19.8966 7.75 19.9656 7.491C20.0356 7.231 19.9976 6.954 19.8616 6.723L17.8146 3.259C17.5376 2.791 16.9396 2.63 16.4616 2.897L14.9706 3.738C14.3706 3.262 13.7046 2.873 12.9996 2.586V1C12.9996 0.448 12.5526 0 11.9996 0H7.99959C7.44759 0 6.99959 0.448 6.99959 1V2.586C6.29459 2.873 5.62859 3.262 5.02959 3.738L3.53759 2.897C3.06259 2.63 2.46259 2.791 2.18559 3.259L0.138595 6.723C0.00159481 6.954 -0.0354052 7.231 0.0345948 7.491C0.103595 7.75 0.274595 7.97 0.508595 8.103L2.06759 8.982C2.02259 9.325 1.99959 9.665 1.99959 10C1.99959 10.335 2.02259 10.675 2.06759 11.017L0.508595 11.897C0.274595 12.029 0.103595 12.25 0.0345948 12.509C-0.0354052 12.769 0.00159481 13.045 0.138595 13.277L2.18559 16.741C2.46259 17.209 3.06259 17.372 3.53759 17.103L5.02959 16.261C5.62859 16.738 6.29459 17.127 6.99959 17.413V19C6.99959 19.552 7.44759 20 7.99959 20H11.9996C12.5526 20 12.9996 19.552 12.9996 19V17.413C13.7046 17.127 14.3706 16.738 14.9706 16.261L16.4616 17.103C16.9396 17.372 17.5376 17.209 17.8146 16.741L19.8616 13.277C19.9976 13.045 20.0356 12.769 19.9656 12.509C19.8966 12.25 19.7256 12.029 19.4916 11.897ZM15.8486 8.678C15.9496 9.126 15.9996 9.571 15.9996 10C15.9996 10.428 15.9496 10.873 15.8486 11.322C15.7516 11.752 15.9486 12.195 16.3326 12.411L17.6196 13.137L16.5906 14.879L15.3376 14.172C14.9546 13.956 14.4716 14.016 14.1546 14.322C13.4636 14.985 12.6196 15.478 11.7146 15.747C11.2906 15.873 10.9996 16.263 10.9996 16.706V18H8.99959V16.706C8.99959 16.263 8.7086 15.873 8.28559 15.747C7.37959 15.478 6.53559 14.985 5.84559 14.322C5.52859 14.016 5.04459 13.956 4.66159 14.172L3.40959 14.879L2.37959 13.137L3.66659 12.411C4.05159 12.195 4.24759 11.752 4.15159 11.322C4.05059 10.873 3.99959 10.428 3.99959 10C3.99959 9.571 4.05059 9.126 4.15159 8.678C4.24759 8.248 4.05159 7.805 3.66659 7.588L2.37959 6.862L3.40959 5.12L4.66159 5.827C5.04559 6.044 5.52859 5.984 5.84559 5.678C6.53559 5.014 7.37959 4.522 8.28559 4.252C8.7086 4.126 8.99959 3.736 8.99959 3.294V2H10.9996V3.294C10.9996 3.736 11.2906 4.126 11.7146 4.252C12.6196 4.522 13.4636 5.014 14.1546 5.678C14.4716 5.984 14.9536 6.043 15.3376 5.827L16.5906 5.12L17.6196 6.862L16.3326 7.588C15.9486 7.805 15.7516 8.248 15.8486 8.678ZM9.99989 5.9998C7.79389 5.9998 5.99989 7.7938 5.99989 9.9998C5.99989 12.2058 7.79389 13.9998 9.99989 13.9998C12.2059 13.9998 13.9999 12.2058 13.9999 9.9998C13.9999 7.7938 12.2059 5.9998 9.99989 5.9998ZM9.99989 11.9998C8.89689 11.9998 7.99989 11.1028 7.99989 9.9998C7.99989 8.8968 8.89689 7.9998 9.99989 7.9998C11.1029 7.9998 11.9999 8.8968 11.9999 9.9998C11.9999 11.1028 11.1029 11.9998 9.99989 11.9998Z" fill="white"/>
</mask>
<g mask="url(#mask0)">
</g>
</svg>
