<svg width="79" height="79" viewBox="0 0 79 79" fill="none" xmlns="http://www.w3.org/2000/svg">
<rect width="79" height="79" rx="39.5" fill="#FFF3F2"/>
<path d="M29.3045 54.7065C28.9554 54.5008 28.5053 54.6166 28.2994 54.9658C27.4595 56.3895 27.0154 58.0151 27.0154 59.6669V63.5809C27.0154 63.9864 27.344 64.3149 27.7493 64.3149C28.1546 64.3149 28.4833 63.9864 28.4833 63.5809V59.6669C28.4833 58.2773 28.8568 56.9095 29.5636 55.7116C29.7697 55.3625 29.6536 54.9125 29.3045 54.7065Z" fill="#002290"/>
<path d="M47.0299 51.5252L45.2542 50.5664C46.3094 49.7269 47.2351 48.7157 47.9766 47.5895L48.0681 47.641C48.4116 47.8345 48.8464 47.7222 49.0532 47.3865L49.9113 45.9941C52.0029 42.6001 52.8009 38.5612 52.1586 34.6211C52.0933 34.2211 51.7163 33.9496 51.3161 34.0149C50.9161 34.0801 50.6446 34.4573 50.7099 34.8573C51.2955 38.4489 50.5681 42.1306 48.6617 45.2241L48.1738 46.0157L48.0832 45.9648C47.7327 45.7674 47.2888 45.8888 47.0876 46.2368C46.2785 47.6364 45.1534 48.8668 43.8326 49.7986L42.702 49.1881V48.3448C45.4567 47.1148 47.3823 44.3513 47.3823 41.1447V33.7715C47.3823 33.2288 47.0794 32.7439 46.5916 32.5059C46.1039 32.2677 45.5352 32.3276 45.1075 32.6615L43.9847 33.5381C43.0141 34.2958 41.8789 34.8215 40.6824 35.0808L42.5321 32.8592C42.7914 32.5476 42.7491 32.0849 42.4376 31.8256C42.1261 31.5663 41.6633 31.6085 41.404 31.92L38.6176 35.2668H35.9652L37.9278 32.8526C38.1835 32.538 38.1359 32.0758 37.8214 31.8201C37.5069 31.5644 37.0446 31.6121 36.7889 31.9266L34.0735 35.2668H32.6955C32.1012 35.2668 31.6177 35.7502 31.6177 36.3446V41.1447C31.6177 44.3132 33.4978 47.0491 36.2001 48.3004V49.1881L35.0697 49.7986C33.7487 48.8667 32.6237 47.6364 31.8146 46.2368C31.6133 45.8885 31.1694 45.7673 30.819 45.9648L30.7284 46.0157L30.2405 45.2241C27.0714 40.0818 27.2638 33.5631 30.7303 28.6166C32.7513 25.733 35.9298 24.0792 39.4511 24.0792C42.9723 24.0792 46.1509 25.733 48.1718 28.6166C48.8778 29.6239 49.4607 30.7212 49.9047 31.878C50.0499 32.2565 50.4746 32.4453 50.8529 32.3003C51.2313 32.1552 51.4204 31.7307 51.2751 31.3522C50.7883 30.0834 50.1487 28.8796 49.3739 27.7741C47.0745 24.4931 43.4577 22.6113 39.4512 22.6113C35.4447 22.6113 31.8279 24.493 29.5284 27.7741C25.7252 33.2009 25.5142 40.3527 28.9909 45.9942L29.849 47.3866C30.0557 47.7222 30.4906 47.8346 30.8341 47.6411L30.9256 47.5896C31.667 48.7158 32.5928 49.727 33.6481 50.5664L31.8723 51.5252C31.411 51.7742 30.9683 52.0645 30.5562 52.3875C30.2373 52.6377 30.1815 53.099 30.4318 53.418C30.5765 53.6025 30.7921 53.6989 31.0097 53.6989C31.1683 53.6989 31.3279 53.6479 31.4622 53.5424C31.8088 53.2705 32.1816 53.0263 32.5698 52.8167L36.2155 50.8482C36.3724 52.4956 37.7634 53.7886 39.4514 53.7886C41.1392 53.7886 42.5304 52.4956 42.6873 50.8482L46.333 52.8167C48.8534 54.1775 50.4191 56.8024 50.4191 59.6666V63.5807C50.4191 63.9862 50.7477 64.3147 51.153 64.3147C51.5583 64.3147 51.8869 63.9862 51.8869 63.5807V59.6666C51.8865 56.2623 50.0256 53.1427 47.0299 51.5252ZM33.0854 41.1449V36.7349H38.9615C41.0985 36.7349 43.2033 36.0107 44.8879 34.6955L45.9143 33.8941V41.145C45.9143 44.682 43.0368 47.5596 39.4999 47.5596C35.963 47.5596 33.0854 44.6818 33.0854 41.1449ZM39.451 52.321C38.4678 52.321 37.6678 51.5211 37.6678 50.5379V48.8101C38.2561 48.9507 38.8691 49.0273 39.4999 49.0273C40.0959 49.0273 40.6757 48.9586 41.2342 48.8327V50.5379C41.2341 51.5211 40.4342 52.321 39.451 52.321Z" fill="#002290"/>
<path d="M51.1528 27.974C51.3266 27.974 51.5011 27.9126 51.641 27.7879L54.478 25.2586C55.542 26.1943 56.9357 26.7637 58.4607 26.7637C61.7907 26.7637 64.4999 24.0545 64.4999 20.7244C64.4999 17.3945 61.7907 14.6853 58.4607 14.6853C55.1307 14.6853 52.4216 17.3945 52.4216 20.7244C52.4216 22.0017 52.8212 23.1869 53.5005 24.1636L50.6642 26.6923C50.3616 26.962 50.3351 27.426 50.6048 27.7286C50.7497 27.8911 50.9508 27.974 51.1528 27.974ZM58.4607 16.1532C60.9813 16.1532 63.0321 18.2038 63.0321 20.7244C63.0321 23.2451 60.9813 25.2958 58.4607 25.2958C55.9401 25.2958 53.8894 23.2451 53.8894 20.7244C53.8894 18.2038 55.9401 16.1532 58.4607 16.1532Z" fill="#0A43FF"/>
<path d="M58.4607 47.7313C56.9357 47.7313 55.542 48.3007 54.478 49.2364L51.641 46.7071C51.3386 46.4373 50.8746 46.464 50.6048 46.7664C50.3351 47.069 50.3616 47.533 50.6642 47.8026L53.5005 50.3314C52.8212 51.3081 52.4216 52.4932 52.4216 53.7705C52.4216 57.1006 55.1308 59.8098 58.4607 59.8098C61.7907 59.8098 64.4999 57.1006 64.4999 53.7705C64.4999 50.4405 61.7907 47.7313 58.4607 47.7313ZM58.4607 58.3419C55.9401 58.3419 53.8894 56.2912 53.8894 53.7705C53.8894 51.2499 55.9402 49.1992 58.4607 49.1992C60.9813 49.1992 63.0321 51.2499 63.0321 53.7705C63.0321 56.2912 60.9813 58.3419 58.4607 58.3419Z" fill="#0A43FF"/>
<path d="M59.3225 33.5483C57.534 33.5483 56.0381 34.8243 55.6966 36.5136H54.7801C54.3748 36.5136 54.0461 36.8422 54.0461 37.2476C54.0461 37.653 54.3748 37.9815 54.7801 37.9815H55.6966C56.0381 39.6709 57.534 40.9467 59.3225 40.9467C61.3622 40.9467 63.0216 39.2873 63.0216 37.2476C63.0216 35.2078 61.3621 33.5483 59.3225 33.5483ZM59.3225 39.4788C58.0921 39.4788 57.0911 38.4778 57.0911 37.2475C57.0911 36.0171 58.0921 35.0161 59.3225 35.0161C60.5529 35.0161 61.5537 36.0171 61.5537 37.2475C61.5537 38.4779 60.5528 39.4788 59.3225 39.4788Z" fill="#0A43FF"/>
<path d="M20.5392 26.7637C22.0643 26.7637 23.458 26.1943 24.522 25.2586L27.3589 27.7879C27.4988 27.9126 27.6732 27.974 27.8471 27.974C28.049 27.974 28.2502 27.891 28.3952 27.7285C28.6649 27.4259 28.6384 26.9619 28.3358 26.6922L25.4995 24.1636C26.1787 23.1869 26.5785 22.0018 26.5785 20.7245C26.5785 19.9216 26.4227 19.1407 26.1155 18.4034C25.9596 18.0293 25.5298 17.8525 25.1557 18.0083C24.7815 18.1642 24.6047 18.5939 24.7606 18.9681C24.9929 19.5255 25.1106 20.1164 25.1106 20.7245C25.1106 23.2452 23.0599 25.2958 20.5393 25.2958C18.0186 25.2958 15.9679 23.2452 15.9679 20.7245C15.9679 18.2038 18.0186 16.1531 20.5392 16.1531C21.4132 16.1531 22.2637 16.4017 22.9985 16.8721C23.3399 17.0908 23.7938 16.9911 24.0123 16.6497C24.2308 16.3084 24.1312 15.8544 23.7899 15.636C22.8183 15.0141 21.6942 14.6853 20.5392 14.6853C17.2092 14.6852 14.5 17.3945 14.5 20.7245C14.5 24.0545 17.2092 26.7637 20.5392 26.7637Z" fill="#0A43FF"/>
<path d="M28.3357 47.8028C28.6383 47.5331 28.6648 47.0691 28.3951 46.7665C28.1253 46.464 27.6615 46.4373 27.3589 46.7072L24.522 49.2365C23.458 48.3008 22.0643 47.7314 20.5392 47.7314C17.2092 47.7313 14.5 50.4405 14.5 53.7706C14.5 57.1006 17.2092 59.8098 20.5392 59.8098C23.8693 59.8098 26.5784 57.1006 26.5784 53.7706C26.5784 52.4933 26.1787 51.3081 25.4994 50.3314L28.3357 47.8028ZM20.5392 58.3419C18.0186 58.3419 15.9679 56.2912 15.9679 53.7706C15.9679 51.2499 18.0186 49.1992 20.5392 49.1992C23.0599 49.1992 25.1105 51.2499 25.1105 53.7706C25.1105 56.2912 23.0599 58.3419 20.5392 58.3419Z" fill="#0A43FF"/>
<path d="M23.3033 36.5136C22.9618 34.8243 21.4659 33.5483 19.6774 33.5483C17.6377 33.5483 15.9783 35.2078 15.9783 37.2476C15.9783 39.2873 17.6378 40.9467 19.6774 40.9467C21.4659 40.9467 22.9618 39.6709 23.3033 37.9815H24.2198C24.6251 37.9815 24.9538 37.653 24.9538 37.2476C24.9538 36.8422 24.6251 36.5136 24.2198 36.5136H23.3033ZM19.6774 39.4788C18.447 39.4788 17.4461 38.4778 17.4461 37.2475C17.4461 36.0171 18.4471 35.0161 19.6774 35.0161C20.9077 35.0161 21.9088 36.0171 21.9088 37.2475C21.9087 38.4779 20.9077 39.4788 19.6774 39.4788Z" fill="#0A43FF"/>
</svg>
