<svg width="79" height="80" viewBox="0 0 79 80" fill="none" xmlns="http://www.w3.org/2000/svg">
<rect y="0.5" width="79" height="79" rx="39.5" fill="#FFF3F2"/>
<g clip-path="url(#clip0)">
<path d="M22.9502 48.3144C21.741 49.4392 20.7698 50.7645 20.0634 52.2536L19.6902 53.0404L13.62 60.7028C13.3479 61.0463 13.4058 61.5453 13.7493 61.8174C13.8951 61.933 14.0689 61.9889 14.2415 61.9889C14.4755 61.9889 14.7073 61.8859 14.864 61.6881L20.9903 53.9549C21.0276 53.9078 21.0593 53.8565 21.0852 53.8024L21.4972 52.9338C22.1171 51.627 22.9696 50.4636 24.0312 49.4762C24.352 49.1778 24.3701 48.6758 24.0717 48.3548C23.7732 48.0341 23.2712 48.0157 22.9502 48.3144Z" fill="#002290"/>
<path d="M64.8292 42.9423C63.7418 41.6592 61.8136 41.5002 60.5308 42.5875L60.1206 42.9351C60.0246 42.4391 59.8046 41.9602 59.4553 41.5481C58.3681 40.2654 56.4397 40.1062 55.1569 41.1933L54.7929 41.5017C54.691 41.0214 54.4719 40.5591 54.1325 40.1586C53.0452 38.8757 51.1171 38.7167 49.8341 39.8038L43.7352 44.9724C43.4221 44.8837 43.0923 44.8353 42.7511 44.8353H31.7931C29.7604 44.8353 27.7269 45.3228 25.9126 46.2451C25.522 46.4437 25.3662 46.9214 25.5648 47.312C25.7634 47.7026 26.2411 47.8584 26.6317 47.6597C28.2245 46.8502 30.0091 46.4222 31.7931 46.4222H42.7512C43.8715 46.4222 44.7829 47.3336 44.7829 48.4539C44.7829 49.0052 44.5658 49.5212 44.1717 49.9067C43.7779 50.292 43.2605 50.4944 42.7069 50.4852C42.7011 50.4851 42.6952 50.485 42.6893 50.485H35.6169C35.1786 50.485 34.8234 50.8402 34.8234 51.2785C34.8234 51.7168 35.1786 52.072 35.6169 52.072H42.6811C42.7055 52.0725 42.7299 52.0727 42.7544 52.0727C43.7048 52.0727 44.5994 51.7082 45.2813 51.0413C45.3813 50.9434 45.4742 50.8405 45.5612 50.7337H52.2657C52.9798 50.7337 53.673 50.4795 54.2179 50.0177L61.5568 43.7981C62.1722 43.2767 63.097 43.353 63.6186 43.9683C64.1401 44.5837 64.0637 45.5087 63.4485 46.0301L51.8631 55.8485C50.7817 56.7648 49.4665 57.3386 48.0593 57.5079L46.6298 57.6799C46.1948 57.7323 45.8845 58.1274 45.9369 58.5626C45.9853 58.9655 46.3278 59.2613 46.7237 59.2613C46.7554 59.2613 46.7874 59.2593 46.8195 59.2555L48.2488 59.0835C49.9655 58.877 51.57 58.1771 52.889 57.0591L64.4745 47.2408C65.7573 46.1536 65.9165 44.2252 64.8292 42.9423ZM50.8601 41.0144C51.4753 40.4928 52.4004 40.5693 52.922 41.1845C53.4026 41.7517 53.3839 42.5777 52.8832 43.1201L46.3648 48.6443C46.3681 48.5811 46.3699 48.5176 46.3699 48.4539C46.3699 47.4074 45.9229 46.4638 45.2104 45.8024L50.8601 41.0144ZM48.2264 49.1468L56.1829 42.4039C56.7984 41.8824 57.7233 41.9589 58.2446 42.5741C58.7662 43.1895 58.6898 44.1145 58.0745 44.6359L53.192 48.8071C52.9335 49.0261 52.6045 49.1468 52.2657 49.1468H48.2264Z" fill="#002290"/>
<path d="M43.2593 58.0853L35.1228 59.0641C34.9221 59.0883 34.7381 59.1881 34.6086 59.3432L29.3005 65.6978C29.0196 66.0342 29.0644 66.5345 29.4008 66.8154C29.5491 66.9394 29.7295 66.9999 29.909 66.9999C30.1361 66.9999 30.3614 66.903 30.5184 66.7152L35.6248 60.6021L43.4489 59.6609C43.884 59.6085 44.1944 59.2135 44.142 58.7784C44.0896 58.3433 43.693 58.0333 43.2593 58.0853Z" fill="#002290"/>
<path d="M36.9585 35.7051C36.9585 35.7051 32.3214 28.4864 32.3147 28.4771C31.5298 27.3638 31.0086 26.0644 30.8072 24.7195C30.7425 24.2861 30.338 23.987 29.9051 24.0523C29.4717 24.117 29.173 24.521 29.2379 24.9544C29.4746 26.5369 30.0864 28.0658 31.0077 29.3771L35.4974 36.3667V37.5239C35.4974 37.859 35.6156 38.1668 35.812 38.4087V41.136C35.812 42.4125 36.8505 43.4511 38.127 43.4511H40.9263C42.2027 43.4511 43.2413 42.4126 43.2413 41.136V38.4087C43.4377 38.1668 43.5559 37.859 43.5559 37.5239V36.3667L48.0456 29.3771C49.279 27.6213 49.9311 25.556 49.9311 23.4032C49.9311 19.9636 48.2336 16.7503 45.3902 14.8072C42.4855 12.8223 38.847 12.4534 35.4079 13.7948C32.9166 14.7666 30.9245 16.7455 29.9424 19.2243C29.6732 19.9036 29.4673 20.6005 29.3304 21.2956C29.2457 21.7256 29.5256 22.1428 29.9555 22.2276C30.3864 22.3126 30.8027 22.0324 30.8874 21.6025C31.0057 21.0019 31.1842 20.3985 31.4178 19.8089C32.238 17.7386 33.9026 16.0854 35.9847 15.2733C38.9281 14.1253 42.03 14.4332 44.4948 16.1175C46.9049 17.7646 48.3439 20.4883 48.3439 23.4033C48.3439 25.2327 47.7887 26.9872 46.7382 28.4771C46.7317 28.4864 42.0945 35.7051 42.0945 35.7051C42.0124 35.8331 41.9687 35.9818 41.9687 36.134V37.344H41.7749L42.2268 29.6735H42.9833C44.2004 29.6735 45.1904 28.6834 45.1904 27.4663V27.3786C45.1904 26.1615 44.2004 25.1715 42.9833 25.1715C41.8165 25.1715 40.8485 26.084 40.78 27.2489L40.7307 28.0866H38.3298L38.2805 27.2489C38.212 26.084 37.244 25.1715 36.0771 25.1715C34.86 25.1715 33.87 26.1615 33.87 27.3786V27.4663C33.87 28.6834 34.86 29.6735 36.0771 29.6735H36.8336L37.2855 37.344H37.0842V36.134C37.0843 35.9818 37.0406 35.8331 36.9585 35.7051ZM42.3643 27.3421C42.3835 27.0147 42.6554 26.7582 42.9834 26.7582C43.3253 26.7582 43.6036 27.0365 43.6036 27.3784V27.4661C43.6036 27.8081 43.3253 28.0863 42.9834 28.0863H42.3204L42.3643 27.3421ZM36.0771 28.0864C35.7352 28.0864 35.4569 27.8082 35.4569 27.4662V27.3785C35.4569 27.0366 35.7352 26.7583 36.0771 26.7583C36.4051 26.7583 36.6771 27.0148 36.6963 27.3422L36.7402 28.0865H36.0771V28.0864ZM41.6542 41.1361C41.6542 41.5376 41.3276 41.8642 40.9261 41.8642H38.1268C37.7253 41.8642 37.3987 41.5376 37.3987 41.1361V38.9308H41.6542V41.1361ZM38.4233 29.6734H40.6371L40.1852 37.3438H38.8754L38.4233 29.6734Z" fill="#0A43FF"/>
<path d="M53.269 24.2648C53.269 24.7031 53.6242 25.0583 54.0625 25.0583H55.933C56.3713 25.0583 56.7265 24.7031 56.7265 24.2648C56.7265 23.8265 56.3713 23.4713 55.933 23.4713H54.0625C53.6242 23.4713 53.269 23.8266 53.269 24.2648Z" fill="white"/>
<path d="M52.8075 20.0696C52.899 20.0696 52.9922 20.0536 53.0831 20.0199L54.8369 19.3698C55.2478 19.2175 55.4574 18.7609 55.3052 18.35C55.1528 17.9391 54.6963 17.7294 54.2854 17.8817L52.5316 18.5318C52.1207 18.6841 51.9111 19.1407 52.0633 19.5516C52.182 19.8717 52.4851 20.0696 52.8075 20.0696Z" fill="white"/>
<path d="M52.5314 29.9981L54.2852 30.6481C54.3761 30.6817 54.4693 30.6978 54.5608 30.6978C54.8831 30.6978 55.1864 30.4999 55.3048 30.1798C55.4571 29.7689 55.2475 29.3124 54.8366 29.1601L53.0828 28.51C52.6719 28.3579 52.2153 28.5675 52.063 28.9783C51.9109 29.3892 52.1205 29.8457 52.5314 29.9981Z" fill="white"/>
<path d="M23.1199 25.0583H24.9904C25.4287 25.0583 25.7839 24.7031 25.7839 24.2648C25.7839 23.8265 25.4287 23.4713 24.9904 23.4713H23.1199C22.6816 23.4713 22.3264 23.8265 22.3264 24.2648C22.3264 24.7031 22.6816 25.0583 23.1199 25.0583Z" fill="white"/>
<path d="M24.2157 19.3699L25.9695 20.02C26.0604 20.0536 26.1535 20.0697 26.2451 20.0697C26.5675 20.0697 26.8706 19.8718 26.9892 19.5517C27.1414 19.1408 26.9318 18.6843 26.5209 18.532L24.7671 17.8818C24.3564 17.7298 23.8998 17.9392 23.7473 18.3501C23.5952 18.761 23.8049 19.2175 24.2157 19.3699Z" fill="white"/>
<path d="M26.9895 28.9783C26.8372 28.5674 26.3807 28.3577 25.9697 28.51L24.2159 29.16C23.805 29.3123 23.5954 29.7689 23.7477 30.1798C23.8662 30.4997 24.1693 30.6978 24.4917 30.6978C24.5832 30.6978 24.6764 30.6818 24.7673 30.6481L26.5211 29.9981C26.9321 29.8457 27.1418 29.3892 26.9895 28.9783Z" fill="white"/>
</g>
<defs>
<clipPath id="clip0">
<rect width="54" height="54" fill="white" transform="translate(12.5 13)"/>
</clipPath>
</defs>
</svg>
